\relax 
\@writefile{toc}{\contentsline {section}{\numberline {1}Problem Statement}{1}}
\@writefile{toc}{\contentsline {section}{\numberline {2}Simulation Environment}{2}}
\@writefile{toc}{\contentsline {section}{\numberline {3}Protocols}{2}}
\@writefile{toc}{\contentsline {subsection}{\numberline {3.1}AlgorithmI}{2}}
\@writefile{toc}{\contentsline {subsection}{\numberline {3.2}AlgorithmII}{3}}
\@writefile{toc}{\contentsline {subsection}{\numberline {3.3}AlgorithmIII}{3}}
\@writefile{toc}{\contentsline {subsection}{\numberline {3.4}AlgorithmIV}{3}}
\@writefile{toc}{\contentsline {subsection}{\numberline {3.5}AlgorithmV}{4}}
\@writefile{toc}{\contentsline {section}{\numberline {4}Results and Discussion}{4}}
\@writefile{toc}{\contentsline {subsection}{\numberline {4.1}AlgorithmI}{4}}
\@writefile{lof}{\contentsline {figure}{\numberline {1}{\ignorespaces $n=250$, $c=0.84$\relax }}{5}}
\@writefile{lof}{\contentsline {figure}{\numberline {2}{\ignorespaces $n=250$, $c=1.01$\relax }}{5}}
\@writefile{lof}{\contentsline {figure}{\numberline {3}{\ignorespaces $n=2500$, $c=0.84$\relax }}{5}}
\@writefile{lof}{\contentsline {figure}{\numberline {4}{\ignorespaces $n=2500$, $c=1.01$\relax }}{5}}
\@writefile{lof}{\contentsline {figure}{\numberline {5}{\ignorespaces $n=25000$, $c=0.84$\relax }}{5}}
\@writefile{lof}{\contentsline {figure}{\numberline {6}{\ignorespaces $n=25000$, $c=1.01$\relax }}{5}}
\@writefile{lof}{\contentsline {figure}{\numberline {7}{\ignorespaces $n=500$, $c=0.84$, $\epsilon =0.005$ \relax }}{6}}
\@writefile{lof}{\contentsline {figure}{\numberline {8}{\ignorespaces $n=500$, $c=0.84$, $\epsilon =0.025$\relax }}{6}}
\@writefile{lof}{\contentsline {figure}{\numberline {9}{\ignorespaces $n=500$, $c=1.3$, $\epsilon =0.025$\relax }}{6}}
\@writefile{lof}{\contentsline {figure}{\numberline {10}{\ignorespaces $n=500$, $c=1.3$, $\epsilon =0.06$\relax }}{6}}
\@writefile{lof}{\contentsline {figure}{\numberline {11}{\ignorespaces $n=500$, $c=2.1$, $\epsilon =0.06$\relax }}{6}}
\@writefile{lof}{\contentsline {figure}{\numberline {12}{\ignorespaces $n=500$, $c=2.1$, $\epsilon =0.5$\relax }}{6}}
\@writefile{toc}{\contentsline {subsection}{\numberline {4.2}AlgorithmII}{7}}
\@writefile{lof}{\contentsline {figure}{\numberline {13}{\ignorespaces $n=125$, $c=2$\relax }}{7}}
\@writefile{lof}{\contentsline {figure}{\numberline {14}{\ignorespaces $n=125$, $c=2.5$\relax }}{7}}
\@writefile{lof}{\contentsline {figure}{\numberline {15}{\ignorespaces $n=250$, $c=2$\relax }}{7}}
\@writefile{lof}{\contentsline {figure}{\numberline {16}{\ignorespaces $n=250$, $c=2.5$\relax }}{7}}
\@writefile{lof}{\contentsline {figure}{\numberline {17}{\ignorespaces $n=500$, $c=2$\relax }}{8}}
\@writefile{lof}{\contentsline {figure}{\numberline {18}{\ignorespaces $n=500$, $c=2.5$\relax }}{8}}
\@writefile{lof}{\contentsline {figure}{\numberline {19}{\ignorespaces $n=1000$, $c=2$\relax }}{8}}
\@writefile{lof}{\contentsline {figure}{\numberline {20}{\ignorespaces $n=1000$, $c=2.5$\relax }}{8}}
\@writefile{toc}{\contentsline {subsection}{\numberline {4.3}AlgorithmIII}{8}}
\@writefile{lof}{\contentsline {figure}{\numberline {21}{\ignorespaces AlgorithmIII: Parameters of this Simulation were: $n=400$, $\epsilon =0.05$, $c=1$, and ChurnII was used\relax }}{9}}
\@writefile{toc}{\contentsline {subsection}{\numberline {4.4}AlgorithmIV}{9}}
\@writefile{lof}{\contentsline {figure}{\numberline {22}{\ignorespaces Example recency trace $\rho _{\tau _{i}}$ of node $v$. Whenever $v$ receives $\tau _{i}$ the recency trace is increased by one after which it decays until it receives $\tau _{i}$ again.\relax }}{10}}
\providecommand*\caption@xref[2]{\@setref\relax\@undefined{#1}}
\newlabel{RecencyTrace}{{22}{10}}
\@writefile{lof}{\contentsline {figure}{\numberline {23}{\ignorespaces AlgorithmIV: Parameters of this Simulation were: $n=500$, $\epsilon =0.05$, $c=1.3$, $\lambda = 0.95$ and ChurnII was used\relax }}{10}}
\@writefile{lof}{\contentsline {figure}{\numberline {24}{\ignorespaces AlgorithmIV: Parameters of this Simulation were: $n=500$, $\epsilon =0.1$, $c=1.3$, $\lambda = 0.95$ and ChurnII was used\relax }}{11}}
\@writefile{toc}{\contentsline {subsection}{\numberline {4.5}AlgorithmV}{11}}
\@writefile{lof}{\contentsline {figure}{\numberline {25}{\ignorespaces AlgorithmV: Parameters of this Simulation were: $n=400$, $\epsilon =0.5$, $c=\infty $ and ChurnVI was used\relax }}{12}}
\newlabel{algo5sinus}{{25}{12}}
\@writefile{lof}{\contentsline {subfigure}{\numberline{(a)}{\ignorespaces {}}}{12}}
\@writefile{lof}{\contentsline {subfigure}{\numberline{(b)}{\ignorespaces {}}}{12}}
\@writefile{toc}{\contentsline {section}{\numberline {5}Future Work}{13}}
\@writefile{toc}{\contentsline {section}{\numberline {6}Appendix}{13}}
\newlabel{algo2}{{\caption@xref {algo2}{ on input line 557}}{13}}
\newlabel{algo4}{{\caption@xref {algo4}{ on input line 570}}{14}}
\newlabel{algo5}{{\caption@xref {algo5}{ on input line 601}}{14}}
