round;percentage;totalTokens;epsilon;totalMessages;maxMessages
1;1;2868;0,1;3000;12
101;0.996;16406;0,1;2617;22
201;0.996;16885;0,1;2576;25
301;0.996;17196;0,1;2659;22
401;0.992;17070;0,1;2577;22
501;0.992;16301;0,1;2661;22
601;0.992;16515;0,1;2566;22
701;0.992;16715;0,1;2565;22
801;0.992;17592;0,1;2595;22
901;0.992;17251;0,1;2592;22
1001;0.984;17605;0,1;2557;23
1101;0.984;17290;0,1;2610;22
1201;0.98;16468;0,1;2554;23
1301;0.976;16103;0,1;2544;22
1401;0.976;16980;0,1;2544;21
1501;0.976;16057;0,1;2559;22
1601;0.968;16556;0,1;2550;22
1701;0.968;16297;0,1;2514;22
1801;0.968;17364;0,1;2518;22
1901;0.964;17416;0,1;2545;22
2001;0.964;16987;0,1;2682;22
2101;0.964;16585;0,1;2609;22
2201;0.964;17436;0,1;2520;22
2301;0.964;16698;0,1;2499;22
2401;0.964;17065;0,1;2642;20
2501;0.964;17060;0,1;2632;22
2601;0.964;17441;0,1;2672;23
2701;0.964;16275;0,1;2635;24
2801;0.964;16779;0,1;2580;22
2901;0.964;16863;0,1;2527;22
3001;0.964;16654;0,1;2540;22
3101;0.964;17876;0,1;2602;22
3201;0.964;17167;0,1;2554;22
3301;0.964;16528;0,1;2606;22
3401;0.964;16600;0,1;2523;22
3501;0.964;16611;0,1;2621;22
3601;0.964;16734;0,1;2590;22
3701;0.96;16813;0,1;2613;22
3801;0.96;15935;0,1;2591;22
3901;0.96;17510;0,1;2544;22
4001;0.96;17439;0,1;2619;22
4101;0.96;16120;0,1;2515;22
4201;0.96;16187;0,1;2637;22
4301;0.96;15913;0,1;2590;22
4401;0.96;16446;0,1;2622;22
4501;0.96;16717;0,1;2556;22
4601;0.96;16580;0,1;2645;22
4701;0.96;17344;0,1;2610;22
4801;0.96;17669;0,1;2569;22
4901;0.96;16555;0,1;2620;22
5001;0.96;16861;0,1;2573;22
5101;0.96;17049;0,1;2603;22
5201;0.96;16657;0,1;2518;22
5301;0.96;17100;0,1;2579;22
5401;0.96;17778;0,1;2637;22
5501;0.96;16355;0,1;2545;22
5601;0.96;16351;0,1;2527;22
5701;0.956;16872;0,1;2546;22
5801;0.956;16263;0,1;2615;22
5901;0.956;15825;0,1;2583;22
6001;0.956;16109;0,1;2638;22
6101;0.956;17260;0,1;2562;22
6201;0.952;16806;0,1;2598;22
6301;0.952;17602;0,1;2612;22
6401;0.952;18065;0,1;2671;24
6501;0.952;16779;0,1;2511;22
6601;0.952;17536;0,1;2550;22
6701;0.952;17117;0,1;2620;22
6801;0.948;16817;0,1;2593;22
6901;0.948;16897;0,1;2534;22
7001;0.948;17017;0,1;2625;22
7101;0.948;16794;0,1;2589;22
7201;0.948;17157;0,1;2595;22
7301;0.948;17008;0,1;2644;22
7401;0.948;17019;0,1;2585;22
7501;0.948;16943;0,1;2577;22
7601;0.948;16415;0,1;2505;22
7701;0.944;16390;0,1;2515;22
7801;0.944;17702;0,1;2649;22
7901;0.944;17877;0,1;2624;22
8001;0.944;16382;0,1;2576;22
8101;0.944;17249;0,1;2608;22
8201;0.944;16816;0,1;2626;22
8301;0.944;17350;0,1;2613;22
8401;0.944;16973;0,1;2675;22
8501;0.944;17727;0,1;2585;22
8601;0.944;17620;0,1;2665;22
8701;0.94;16124;0,1;2674;22
8801;0.936;15052;0,1;2551;22
8901;0.936;16727;0,1;2577;22
9001;0.936;17482;0,1;2591;22
9101;0.936;17377;0,1;2661;22
9201;0.936;15994;0,1;2607;22
9301;0.936;16768;0,1;2486;22
9401;0.936;16687;0,1;2605;22
9501;0.936;17090;0,1;2622;22
9601;0.936;17009;0,1;2541;22
9701;0.936;16877;0,1;2566;22
9801;0.936;17571;0,1;2622;22
9901;0.936;16453;0,1;2559;22
10001;0.936;16579;0,1;2549;20
10101;0.936;16388;0,1;2521;22
10201;0.936;16853;0,1;2595;22
10301;0.936;16840;0,1;2576;22
10401;0.936;17312;0,1;2645;22
10501;0.936;16381;0,1;2616;22
10601;0.932;17036;0,1;2603;22
10701;0.932;16140;0,1;2644;22
10801;0.932;16442;0,1;2603;22
10901;0.932;16930;0,1;2668;22
11001;0.932;17721;0,1;2597;22
11101;0.932;15636;0,1;2626;22
11201;0.932;16468;0,1;2620;22
11301;0.932;16904;0,1;2626;22
11401;0.932;16756;0,1;2560;22
11501;0.928;16770;0,1;2622;22
11601;0.928;16474;0,1;2564;22
11701;0.928;17115;0,1;2566;27
11801;0.928;16792;0,1;2549;22
11901;0.928;17204;0,1;2545;22
12001;0.928;16568;0,1;2644;22
12101;0.928;16859;0,1;2528;22
12201;0.928;16483;0,1;2615;22
12301;0.924;16135;0,1;2612;22
12401;0.92;16458;0,1;2569;22
12501;0.92;16965;0,1;2585;22
12601;0.92;16830;0,1;2548;22
12701;0.92;17219;0,1;2598;22
12801;0.92;16590;0,1;2660;22
12901;0.92;17030;0,1;2643;22
13001;0.92;16623;0,1;2552;22
13101;0.92;16975;0,1;2594;20
13201;0.92;16675;0,1;2574;22
13301;0.92;16558;0,1;2626;22
13401;0.92;15827;0,1;2686;22
13501;0.92;16402;0,1;2625;22
13601;0.92;16915;0,1;2595;25
13701;0.92;16755;0,1;2548;22
13801;0.92;16340;0,1;2572;22
13901;0.92;16297;0,1;2576;22
14001;0.92;16746;0,1;2577;22
14101;0.92;16802;0,1;2514;22
14201;0.92;16488;0,1;2583;22
14301;0.92;17208;0,1;2539;22
14401;0.92;17024;0,1;2640;22
14501;0.92;16824;0,1;2554;22
14601;0.92;16631;0,1;2577;22
14701;0.92;16787;0,1;2573;22
14801;0.916;15950;0,1;2575;22
14901;0.916;16017;0,1;2648;22
15001;0.912;15650;0,1;2527;22
15101;0.912;17356;0,1;2604;22
15201;0.908;16091;0,1;2590;22
15301;0.908;16424;0,1;2562;22
15401;0.908;16744;0,1;2565;22
15501;0.908;16687;0,1;2611;22
15601;0.908;15764;0,1;2516;22
15701;0.908;17132;0,1;2560;22
15801;0.908;15967;0,1;2616;22
15901;0.908;16787;0,1;2606;22
16001;0.908;17308;0,1;2618;22
16101;0.908;16808;0,1;2566;22
16201;0.908;17165;0,1;2576;24
16301;0.908;16323;0,1;2619;22
16401;0.908;16153;0,1;2604;22
16501;0.908;16834;0,1;2588;22
16601;0.908;15939;0,1;2599;22
16701;0.908;16708;0,1;2587;22
16801;0.908;16152;0,1;2624;22
16901;0.908;16776;0,1;2585;22
17001;0.904;15987;0,1;2562;22
17101;0.904;16911;0,1;2702;22
17201;0.904;16523;0,1;2578;22
17301;0.904;16261;0,1;2630;22
17401;0.904;16217;0,1;2650;22
17501;0.904;16099;0,1;2611;22
17601;0.904;16975;0,1;2560;25
17701;0.9;16421;0,1;2655;23
17801;0.9;15895;0,1;2593;22
17901;0.9;16356;0,1;2624;22
18001;0.9;16832;0,1;2623;22
18101;0.9;15637;0,1;2707;22
18201;0.9;16845;0,1;2566;22
18301;0.892;17015;0,1;2695;22
18401;0.892;16595;0,1;2508;25
18501;0.892;16434;0,1;2534;22
18601;0.892;16829;0,1;2615;24
18701;0.892;17236;0,1;2667;22
18801;0.892;16276;0,1;2654;22
18901;0.892;16688;0,1;2575;22
19001;0.892;16756;0,1;2597;22
19101;0.888;16199;0,1;2550;22
19201;0.888;16642;0,1;2536;22
19301;0.888;15945;0,1;2559;22
19401;0.888;15945;0,1;2616;24
19501;0.888;17035;0,1;2502;22
19601;0.888;16815;0,1;2599;22
19701;0.888;16170;0,1;2495;22
19801;0.888;16288;0,1;2516;23
19901;0.888;16354;0,1;2597;22
