round;percentage;totalTokens;epsilon;totalMessages;maxMessages
1;1;1411;0,06;1000;2
21;0.998;11991;0,06;1135;9
41;0.988;15654;0,06;1188;9
61;0.978;16556;0,06;1246;9
81;0.946;17797;0,06;1413;11
101;0.93;19367;0,06;1386;11
121;0.908;20299;0,06;1493;11
141;0.886;21273;0,06;1653;10
161;0.866;23116;0,06;1682;10
181;0.852;23096;0,06;1703;10
201;0.848;24240;0,06;1752;12
221;0.84;25452;0,06;1838;11
241;0.83;25793;0,06;1854;12
261;0.824;25220;0,06;1856;11
281;0.816;26566;0,06;1925;11
301;0.812;27057;0,06;1980;11
321;0.806;25359;0,06;1995;13
341;0.804;25279;0,06;1884;11
361;0.804;26526;0,06;1972;15
381;0.8;27384;0,06;1999;10
401;0.798;25871;0,06;1842;10
421;0.79;25231;0,06;1894;12
441;0.786;25170;0,06;1865;11
461;0.784;26210;0,06;1890;11
481;0.78;26231;0,06;1916;12
501;0.778;27027;0,06;1966;14
521;0.776;26965;0,06;1954;12
541;0.776;27556;0,06;2037;15
561;0.776;29261;0,06;2195;18
581;0.776;28522;0,06;2051;12
601;0.768;28199;0,06;2085;11
621;0.766;26993;0,06;2014;11
641;0.764;26594;0,06;2047;13
661;0.762;27000;0,06;2045;11
681;0.756;26742;0,06;1976;11
701;0.754;27967;0,06;2015;12
721;0.752;26077;0,06;1980;12
741;0.752;26791;0,06;1915;11
761;0.752;25964;0,06;1972;11
781;0.75;25874;0,06;1879;11
801;0.748;26663;0,06;1909;11
821;0.744;25241;0,06;1881;12
841;0.738;25158;0,06;1935;12
861;0.736;25571;0,06;1902;12
881;0.734;26293;0,06;1919;11
901;0.728;25500;0,06;1996;14
921;0.726;25287;0,06;1864;10
941;0.72;25992;0,06;1860;12
961;0.716;24357;0,06;1790;10
981;0.712;25017;0,06;1767;10
1001;0.71;23607;0,06;1824;12
1021;0.708;24209;0,06;1792;11
1041;0.704;24879;0,06;1762;11
1061;0.704;25240;0,06;1784;11
1081;0.702;23718;0,06;1749;11
1101;0.7;24209;0,06;1688;9
1121;0.698;23315;0,06;1834;11
1141;0.698;23128;0,06;1756;11
1161;0.69;23826;0,06;1777;13
1181;0.688;23872;0,06;1756;12
1201;0.686;24552;0,06;1755;10
1221;0.682;23549;0,06;1810;11
1241;0.678;24343;0,06;1782;13
1261;0.678;23407;0,06;1740;10
1281;0.676;22635;0,06;1691;12
1301;0.672;22795;0,06;1725;11
1321;0.668;21178;0,06;1651;11
1341;0.666;20951;0,06;1649;13
1361;0.662;21965;0,06;1590;14
1381;0.662;22686;0,06;1642;10
1401;0.662;22071;0,06;1644;12
1421;0.658;21970;0,06;1594;10
1441;0.658;22151;0,06;1641;10
1461;0.656;21965;0,06;1675;10
1481;0.652;21433;0,06;1629;12
1501;0.65;21252;0,06;1596;10
1521;0.644;20803;0,06;1552;11
1541;0.64;21749;0,06;1613;12
1561;0.636;22080;0,06;1565;13
1581;0.634;21479;0,06;1545;9
1601;0.632;21318;0,06;1615;11
1621;0.632;20890;0,06;1583;10
1641;0.63;21751;0,06;1583;11
1661;0.628;21764;0,06;1604;11
1681;0.626;22022;0,06;1613;10
1701;0.626;21716;0,06;1588;12
1721;0.624;20425;0,06;1646;13
1741;0.622;20659;0,06;1628;12
1761;0.618;22744;0,06;1602;10
1781;0.616;23263;0,06;1677;10
1801;0.616;23731;0,06;1634;10
1821;0.616;23055;0,06;1675;13
1841;0.614;22220;0,06;1732;12
1861;0.614;21404;0,06;1616;11
1881;0.614;22477;0,06;1557;10
1901;0.614;22688;0,06;1622;10
1921;0.61;21207;0,06;1570;11
1941;0.608;20523;0,06;1621;10
1961;0.608;21558;0,06;1610;11
1981;0.606;20680;0,06;1611;10
2001;0.604;20684;0,06;1474;10
2021;0.602;21224;0,06;1518;9
2041;0.6;19656;0,06;1556;12
2061;0.6;20753;0,06;1508;9
2081;0.598;20194;0,06;1497;9
2101;0.596;20649;0,06;1535;11
2121;0.594;20531;0,06;1546;10
2141;0.594;19491;0,06;1498;9
2161;0.594;19403;0,06;1527;11
2181;0.592;20381;0,06;1515;10
2201;0.592;20405;0,06;1466;9
2221;0.592;19693;0,06;1532;11
2241;0.592;18870;0,06;1444;8
2261;0.588;19260;0,06;1417;9
2281;0.584;18437;0,06;1453;10
2301;0.584;19493;0,06;1422;11
2321;0.582;18882;0,06;1443;10
2341;0.578;18102;0,06;1398;10
2361;0.574;18393;0,06;1303;10
2381;0.57;18393;0,06;1409;9
2401;0.57;18605;0,06;1357;8
2421;0.564;18666;0,06;1395;10
2441;0.562;19001;0,06;1432;10
2461;0.562;18751;0,06;1417;8
2481;0.562;18449;0,06;1408;10
2501;0.56;18436;0,06;1387;9
2521;0.556;18905;0,06;1380;9
2541;0.556;18983;0,06;1325;9
2561;0.552;18633;0,06;1466;10
2581;0.55;18814;0,06;1485;11
2601;0.548;19274;0,06;1430;8
2621;0.544;17946;0,06;1372;11
2641;0.544;18498;0,06;1356;11
2661;0.542;18262;0,06;1386;10
2681;0.542;17605;0,06;1331;9
2701;0.542;17661;0,06;1336;9
2721;0.54;18436;0,06;1324;10
2741;0.538;18806;0,06;1402;9
2761;0.532;17921;0,06;1345;9
2781;0.526;16770;0,06;1302;8
2801;0.524;17284;0,06;1326;9
2821;0.522;17752;0,06;1344;9
2841;0.522;18284;0,06;1288;9
2861;0.52;17097;0,06;1343;9
2881;0.518;17943;0,06;1339;11
2901;0.518;17947;0,06;1347;9
2921;0.516;17179;0,06;1274;9
2941;0.516;17570;0,06;1313;9
2961;0.514;17214;0,06;1292;8
2981;0.514;17591;0,06;1266;8
3001;0.512;17436;0,06;1357;9
3021;0.51;18201;0,06;1344;10
3041;0.51;17607;0,06;1310;12
3061;0.504;17353;0,06;1356;10
3081;0.504;17423;0,06;1254;10
3101;0.502;17636;0,06;1375;9
3121;0.5;17390;0,06;1339;8
3141;0.5;17530;0,06;1243;8
3161;0.5;17448;0,06;1249;9
3181;0.496;18197;0,06;1284;8
3201;0.496;17299;0,06;1281;8
3221;0.496;16900;0,06;1266;9
3241;0.494;16812;0,06;1281;8
3261;0.486;16812;0,06;1275;9
3281;0.486;16528;0,06;1254;11
3301;0.486;16929;0,06;1249;10
3321;0.486;17037;0,06;1298;9
3341;0.486;16491;0,06;1276;11
3361;0.486;17145;0,06;1215;9
3381;0.484;16162;0,06;1211;8
3401;0.482;16316;0,06;1179;8
3421;0.48;16009;0,06;1209;11
3441;0.478;15638;0,06;1180;8
3461;0.472;16049;0,06;1205;8
3481;0.47;16252;0,06;1186;9
3501;0.466;16217;0,06;1201;9
3521;0.464;16673;0,06;1227;10
3541;0.464;15839;0,06;1193;9
3561;0.464;14990;0,06;1198;8
3581;0.46;14509;0,06;1136;7
3601;0.458;15461;0,06;1123;10
3621;0.458;15945;0,06;1157;9
3641;0.458;15450;0,06;1149;11
3661;0.458;14995;0,06;1198;8
3681;0.456;15168;0,06;1107;7
3701;0.454;14791;0,06;1077;11
3721;0.452;14985;0,06;1148;9
3741;0.448;14676;0,06;1096;10
3761;0.448;14318;0,06;1032;9
3781;0.444;13992;0,06;1011;8
3801;0.44;14377;0,06;1055;9
3821;0.434;14937;0,06;1098;8
3841;0.434;14663;0,06;1073;9
3861;0.432;14731;0,06;1121;7
3881;0.426;15280;0,06;1141;7
3901;0.424;14234;0,06;1104;7
3921;0.424;14868;0,06;1047;9
3941;0.424;15298;0,06;1138;9
3961;0.422;14043;0,06;1110;9
3981;0.422;14369;0,06;1065;7
4001;0.422;14599;0,06;1036;8
4021;0.42;14620;0,06;1067;8
4041;0.42;14635;0,06;1064;8
4061;0.418;14328;0,06;1038;9
4081;0.414;14608;0,06;1096;8
4101;0.414;14436;0,06;1082;7
4121;0.414;14405;0,06;1080;9
4141;0.412;14490;0,06;1071;8
4161;0.408;15112;0,06;1034;9
4181;0.408;14649;0,06;1073;9
4201;0.408;14402;0,06;1149;8
4221;0.404;14047;0,06;1098;11
4241;0.402;13802;0,06;1088;9
4261;0.402;13997;0,06;1082;10
4281;0.4;13543;0,06;1007;8
4301;0.4;13482;0,06;1016;9
4321;0.4;12832;0,06;973;7
4341;0.398;12662;0,06;949;8
4361;0.398;12605;0,06;954;7
4381;0.398;12459;0,06;950;8
4401;0.398;12764;0,06;937;8
4421;0.398;13278;0,06;975;6
4441;0.398;13156;0,06;1041;7
4461;0.396;13559;0,06;982;7
4481;0.396;13721;0,06;1035;7
4501;0.394;13446;0,06;1008;9
4521;0.39;13480;0,06;1033;9
4541;0.39;13442;0,06;1026;9
4561;0.388;13052;0,06;946;6
4581;0.384;13385;0,06;967;8
4601;0.384;13127;0,06;1007;8
4621;0.38;13368;0,06;976;8
4641;0.378;13394;0,06;957;9
4661;0.374;13529;0,06;1022;8
4681;0.374;13392;0,06;966;8
4701;0.374;13243;0,06;951;8
4721;0.368;12917;0,06;980;7
4741;0.368;12395;0,06;880;7
4761;0.368;12753;0,06;936;8
4781;0.366;12804;0,06;939;7
4801;0.366;13058;0,06;935;8
4821;0.364;12500;0,06;927;6
4841;0.364;12486;0,06;951;7
4861;0.364;12319;0,06;939;7
4881;0.362;12980;0,06;924;7
4901;0.36;12008;0,06;942;7
4921;0.36;12373;0,06;907;7
4941;0.354;11949;0,06;894;7
4961;0.354;12297;0,06;903;8
4981;0.354;12359;0,06;903;7
5001;0.354;11967;0,06;871;8
5021;0.352;11411;0,06;897;8
5041;0.352;12162;0,06;889;9
5061;0.348;12484;0,06;963;6
5081;0.346;11841;0,06;871;8
5101;0.344;12018;0,06;931;9
5121;0.344;11637;0,06;875;7
5141;0.342;11026;0,06;833;10
5161;0.34;11874;0,06;844;7
5181;0.34;11383;0,06;812;7
5201;0.34;11303;0,06;805;7
5221;0.34;10959;0,06;783;7
5241;0.338;10974;0,06;841;8
5261;0.336;11806;0,06;870;8
5281;0.336;11913;0,06;886;7
5301;0.336;12013;0,06;933;8
5321;0.336;12033;0,06;943;7
5341;0.336;11588;0,06;878;8
5361;0.332;11454;0,06;888;8
5381;0.328;11362;0,06;874;7
5401;0.324;10801;0,06;768;7
5421;0.324;10967;0,06;842;6
5441;0.322;10877;0,06;807;6
5461;0.322;10482;0,06;745;7
5481;0.322;10846;0,06;756;7
5501;0.322;11104;0,06;804;7
5521;0.32;11114;0,06;811;6
5541;0.32;10633;0,06;799;6
5561;0.314;10590;0,06;761;8
5581;0.314;10193;0,06;791;7
5601;0.312;10887;0,06;796;7
5621;0.312;10230;0,06;750;6
5641;0.312;10478;0,06;748;6
5661;0.31;10864;0,06;824;7
5681;0.31;10955;0,06;799;7
5701;0.31;10576;0,06;808;7
5721;0.31;10650;0,06;796;7
5741;0.31;10927;0,06;778;7
5761;0.31;10587;0,06;807;9
5781;0.31;10447;0,06;771;7
5801;0.31;10517;0,06;771;7
5821;0.304;10025;0,06;772;6
5841;0.304;10687;0,06;833;7
5861;0.304;10915;0,06;810;6
5881;0.3;10648;0,06;806;6
5901;0.3;10309;0,06;786;7
5921;0.3;10296;0,06;825;6
5941;0.296;10577;0,06;783;6
5961;0.294;10380;0,06;810;6
5981;0.294;10305;0,06;762;7
6001;0.292;10404;0,06;787;7
6021;0.29;10928;0,06;823;6
6041;0.29;10826;0,06;826;7
6061;0.29;11202;0,06;859;7
6081;0.29;11129;0,06;840;7
6101;0.288;11042;0,06;814;7
6121;0.286;10438;0,06;752;8
6141;0.286;10425;0,06;755;7
6161;0.284;10431;0,06;752;6
6181;0.284;10232;0,06;749;7
6201;0.284;10263;0,06;683;5
6221;0.284;9843;0,06;740;6
6241;0.282;9556;0,06;736;5
6261;0.282;9994;0,06;698;7
6281;0.282;10404;0,06;753;7
6301;0.282;10726;0,06;783;6
6321;0.282;10530;0,06;804;8
6341;0.282;10269;0,06;779;8
6361;0.282;9947;0,06;744;6
6381;0.28;10447;0,06;804;6
6401;0.28;10143;0,06;710;8
6421;0.278;9416;0,06;736;7
6441;0.278;9515;0,06;716;6
6461;0.278;9388;0,06;716;7
6481;0.278;9088;0,06;695;8
6501;0.278;9339;0,06;679;7
6521;0.278;9645;0,06;695;5
6541;0.276;9677;0,06;713;6
6561;0.274;9591;0,06;721;7
6581;0.274;9214;0,06;694;7
6601;0.274;9576;0,06;726;6
6621;0.274;9881;0,06;742;8
6641;0.268;9291;0,06;714;6
6661;0.268;9506;0,06;658;6
6681;0.268;9681;0,06;667;6
6701;0.266;8983;0,06;674;6
6721;0.264;9210;0,06;735;5
6741;0.262;9633;0,06;733;6
6761;0.262;9293;0,06;693;6
6781;0.26;9291;0,06;679;6
6801;0.26;8624;0,06;612;6
6821;0.258;8600;0,06;549;6
6841;0.258;8876;0,06;649;6
6861;0.256;8160;0,06;624;5
6881;0.256;8396;0,06;653;6
6901;0.256;8729;0,06;639;7
6921;0.254;8328;0,06;652;6
6941;0.25;8215;0,06;637;6
6961;0.246;8525;0,06;643;6
6981;0.246;8213;0,06;601;5
7001;0.246;8303;0,06;617;6
7021;0.244;8407;0,06;612;6
7041;0.244;8173;0,06;618;5
7061;0.242;8109;0,06;588;6
7081;0.242;8116;0,06;589;7
7101;0.238;8710;0,06;658;6
7121;0.238;8475;0,06;679;5
7141;0.238;8450;0,06;628;6
7161;0.236;7869;0,06;625;5
7181;0.236;8467;0,06;639;6
7201;0.236;8154;0,06;619;5
7221;0.234;7667;0,06;566;6
7241;0.234;7700;0,06;560;8
7261;0.232;7873;0,06;561;5
7281;0.232;8163;0,06;621;5
7301;0.232;8485;0,06;566;5
7321;0.232;8034;0,06;591;5
7341;0.232;8068;0,06;596;5
7361;0.23;7183;0,06;529;6
7381;0.228;7261;0,06;553;6
7401;0.228;7301;0,06;546;6
7421;0.228;7643;0,06;595;5
7441;0.228;7535;0,06;581;7
7461;0.226;7424;0,06;567;5
7481;0.226;7817;0,06;559;10
7501;0.226;8005;0,06;589;6
7521;0.222;8024;0,06;561;6
7541;0.22;7988;0,06;583;6
7561;0.218;7712;0,06;669;7
7581;0.216;8132;0,06;582;6
7601;0.216;7540;0,06;593;6
7621;0.216;7306;0,06;555;6
7641;0.216;7543;0,06;605;7
7661;0.216;7985;0,06;592;6
7681;0.216;7800;0,06;532;5
7701;0.216;7569;0,06;571;6
7721;0.214;7730;0,06;584;7
7741;0.214;7991;0,06;586;6
7761;0.214;7688;0,06;601;5
7781;0.212;7479;0,06;582;5
7801;0.212;7268;0,06;574;5
7821;0.21;7224;0,06;561;7
7841;0.21;7856;0,06;597;5
7861;0.21;8028;0,06;621;7
7881;0.21;7533;0,06;551;6
7901;0.208;7270;0,06;525;7
7921;0.208;7325;0,06;554;7
7941;0.208;7429;0,06;550;7
7961;0.208;7524;0,06;538;6
7981;0.208;7272;0,06;552;4
8001;0.208;7487;0,06;549;5
8021;0.208;7248;0,06;510;5
8041;0.208;7132;0,06;532;5
8061;0.208;7388;0,06;568;5
8081;0.208;7024;0,06;583;7
8101;0.206;6918;0,06;526;5
8121;0.206;7125;0,06;494;6
8141;0.206;6775;0,06;520;6
8161;0.206;6839;0,06;508;5
8181;0.204;6756;0,06;549;5
8201;0.204;6792;0,06;512;5
8221;0.204;7337;0,06;527;6
8241;0.204;7493;0,06;504;5
8261;0.202;7061;0,06;502;6
8281;0.202;6813;0,06;508;5
8301;0.202;6748;0,06;501;5
8321;0.202;6557;0,06;487;5
8341;0.202;6114;0,06;481;6
8361;0.2;6542;0,06;500;6
8381;0.198;6708;0,06;491;5
8401;0.198;6621;0,06;538;6
8421;0.198;6712;0,06;474;7
8441;0.198;6147;0,06;499;4
8461;0.198;6187;0,06;502;5
8481;0.198;6481;0,06;522;5
8501;0.194;6686;0,06;468;4
8521;0.194;6689;0,06;464;4
8541;0.192;6561;0,06;469;5
8561;0.19;6701;0,06;535;6
8581;0.19;6807;0,06;474;5
8601;0.19;6339;0,06;437;5
8621;0.188;6606;0,06;510;6
8641;0.188;6470;0,06;497;5
8661;0.186;6142;0,06;522;4
8681;0.186;6263;0,06;464;5
8701;0.184;6303;0,06;476;4
8721;0.184;6351;0,06;458;5
8741;0.184;6575;0,06;478;6
8761;0.184;6799;0,06;562;5
8781;0.184;6417;0,06;479;7
8801;0.184;6397;0,06;497;7
8821;0.182;6382;0,06;471;7
8841;0.182;6406;0,06;520;5
8861;0.182;6202;0,06;431;4
8881;0.182;6423;0,06;472;5
8901;0.182;6523;0,06;487;6
8921;0.18;6632;0,06;469;4
8941;0.18;6567;0,06;490;6
8961;0.178;6380;0,06;471;5
8981;0.178;6455;0,06;459;5
9001;0.178;6541;0,06;478;4
9021;0.178;6500;0,06;502;5
9041;0.176;6786;0,06;519;6
9061;0.176;6524;0,06;485;5
9081;0.176;6356;0,06;466;5
9101;0.176;6265;0,06;474;6
9121;0.176;6215;0,06;458;5
9141;0.176;6211;0,06;431;5
9161;0.176;6283;0,06;462;5
9181;0.176;6443;0,06;445;5
9201;0.174;6348;0,06;507;6
9221;0.174;6461;0,06;428;5
9241;0.172;6223;0,06;470;4
9261;0.172;5943;0,06;442;5
9281;0.17;5762;0,06;441;6
9301;0.168;5811;0,06;458;5
9321;0.168;5915;0,06;473;4
9341;0.168;5939;0,06;390;4
9361;0.168;5781;0,06;443;5
9381;0.166;6143;0,06;453;4
9401;0.164;5934;0,06;443;4
9421;0.162;5630;0,06;467;5
9441;0.158;5813;0,06;441;5
9461;0.158;6004;0,06;445;4
9481;0.158;5876;0,06;405;4
9501;0.158;5432;0,06;400;4
9521;0.158;5482;0,06;390;4
9541;0.158;5425;0,06;390;4
9561;0.158;5233;0,06;421;5
9581;0.158;5214;0,06;397;5
9601;0.156;5349;0,06;369;4
9621;0.154;5311;0,06;432;5
9641;0.154;5248;0,06;383;5
9661;0.152;4961;0,06;396;6
9681;0.152;4875;0,06;365;4
9701;0.15;5248;0,06;410;5
9721;0.15;5228;0,06;364;4
9741;0.15;4941;0,06;387;7
9761;0.146;5050;0,06;361;4
9781;0.144;5107;0,06;369;4
9801;0.144;4935;0,06;357;5
9821;0.142;4797;0,06;354;5
9841;0.142;5155;0,06;378;4
9861;0.142;4816;0,06;356;4
9881;0.142;4708;0,06;345;4
9901;0.142;4265;0,06;319;4
9921;0.14;4265;0,06;321;4
9941;0.14;4388;0,06;327;4
9961;0.14;4629;0,06;333;5
9981;0.14;4845;0,06;345;4
10001;0.14;4873;0,06;363;5
10021;0.138;4774;0,06;358;5
10041;0.136;4627;0,06;343;5
10061;0.136;4590;0,06;368;4
10081;0.136;4661;0,06;338;4
10101;0.136;4297;0,06;332;5
10121;0.136;4432;0,06;311;5
10141;0.136;4567;0,06;330;4
10161;0.136;4678;0,06;330;5
10181;0.136;4670;0,06;361;4
10201;0.136;4656;0,06;337;4
10221;0.136;4507;0,06;345;5
10241;0.136;4737;0,06;342;4
10261;0.136;4982;0,06;366;4
10281;0.136;4849;0,06;379;5
10301;0.136;4811;0,06;381;4
10321;0.136;4949;0,06;357;5
10341;0.136;4840;0,06;359;5
10361;0.136;4336;0,06;321;4
10381;0.136;4494;0,06;327;5
10401;0.136;4803;0,06;378;5
10421;0.136;4752;0,06;374;5
10441;0.134;4737;0,06;337;4
10461;0.134;4789;0,06;325;5
10481;0.134;4670;0,06;327;4
10501;0.134;4461;0,06;341;5
10521;0.134;4500;0,06;336;4
10541;0.134;4469;0,06;351;4
10561;0.134;4641;0,06;300;4
10581;0.134;4554;0,06;325;5
10601;0.134;4581;0,06;338;4
10621;0.132;4622;0,06;319;5
10641;0.132;4562;0,06;347;4
10661;0.132;4533;0,06;336;3
10681;0.132;4698;0,06;350;6
10701;0.13;4551;0,06;327;4
10721;0.128;4662;0,06;330;5
10741;0.128;4626;0,06;373;5
10761;0.128;4581;0,06;336;4
10781;0.128;4571;0,06;316;4
10801;0.128;4307;0,06;344;4
10821;0.124;4325;0,06;335;5
10841;0.124;4111;0,06;332;4
10861;0.122;4432;0,06;307;6
10881;0.122;4395;0,06;366;5
10901;0.122;4557;0,06;326;4
10921;0.118;4576;0,06;340;4
10941;0.118;4287;0,06;336;4
10961;0.118;3967;0,06;306;3
10981;0.118;4150;0,06;324;4
11001;0.116;4359;0,06;340;4
11021;0.116;4317;0,06;301;5
11041;0.116;3966;0,06;300;5
11061;0.116;4130;0,06;339;4
11081;0.116;3976;0,06;285;5
11101;0.116;3850;0,06;304;4
11121;0.116;4013;0,06;284;3
11141;0.116;4198;0,06;314;4
11161;0.114;4070;0,06;309;4
11181;0.114;3915;0,06;298;5
11201;0.114;3867;0,06;286;4
11221;0.114;4116;0,06;300;4
11241;0.114;3885;0,06;293;4
11261;0.114;3593;0,06;263;4
11281;0.114;3639;0,06;265;4
11301;0.114;3658;0,06;271;4
11321;0.114;3777;0,06;274;3
11341;0.114;3941;0,06;293;4
11361;0.114;3934;0,06;271;4
11381;0.114;3979;0,06;294;4
11401;0.114;4048;0,06;308;4
11421;0.114;4223;0,06;308;4
11441;0.114;4297;0,06;312;4
11461;0.114;4216;0,06;319;4
11481;0.114;4297;0,06;338;4
11501;0.114;4302;0,06;312;4
11521;0.114;4455;0,06;315;4
11541;0.114;4428;0,06;340;5
11561;0.114;4429;0,06;326;5
11581;0.114;4396;0,06;318;4
11601;0.114;4516;0,06;330;4
11621;0.114;4653;0,06;343;5
11641;0.114;4632;0,06;314;4
11661;0.114;4648;0,06;350;5
11681;0.114;4363;0,06;325;5
11701;0.114;4366;0,06;335;4
11721;0.114;4201;0,06;313;4
11741;0.114;4141;0,06;319;3
11761;0.114;4311;0,06;298;3
11781;0.114;4105;0,06;283;3
11801;0.114;4094;0,06;302;4
11821;0.114;4200;0,06;326;4
11841;0.114;3965;0,06;298;4
11861;0.114;3928;0,06;308;4
11881;0.114;4246;0,06;309;4
11901;0.114;4243;0,06;289;4
11921;0.114;3657;0,06;300;4
11941;0.114;3719;0,06;256;5
11961;0.114;3725;0,06;283;5
11981;0.114;3772;0,06;317;5
12001;0.112;3874;0,06;282;4
12021;0.112;4092;0,06;320;5
12041;0.112;4191;0,06;315;4
12061;0.112;3944;0,06;303;4
12081;0.112;3762;0,06;269;4
12101;0.112;3874;0,06;291;4
12121;0.112;3898;0,06;298;4
12141;0.112;3705;0,06;283;3
12161;0.112;3793;0,06;270;3
12181;0.112;3876;0,06;274;3
12201;0.112;3829;0,06;282;4
12221;0.112;3845;0,06;291;3
12241;0.112;3657;0,06;263;4
12261;0.112;3738;0,06;256;4
12281;0.112;3776;0,06;287;4
12301;0.112;4070;0,06;286;3
12321;0.112;4060;0,06;313;4
12341;0.112;3924;0,06;280;4
12361;0.112;4102;0,06;304;4
12381;0.112;4176;0,06;319;6
12401;0.112;4110;0,06;313;4
12421;0.112;4075;0,06;275;4
12441;0.112;3890;0,06;285;4
12461;0.11;3920;0,06;297;5
12481;0.11;3986;0,06;264;5
12501;0.108;3966;0,06;322;4
12521;0.108;4129;0,06;306;6
12541;0.106;4027;0,06;289;4
12561;0.106;3804;0,06;271;4
12581;0.106;3737;0,06;294;4
12601;0.106;3596;0,06;278;4
12621;0.106;3671;0,06;304;4
12641;0.106;3554;0,06;274;4
12661;0.106;3364;0,06;262;5
12681;0.106;3516;0,06;281;4
12701;0.106;3453;0,06;239;3
12721;0.104;3290;0,06;250;3
12741;0.104;3240;0,06;235;3
12761;0.104;3132;0,06;235;4
12781;0.102;3129;0,06;207;3
12801;0.102;3275;0,06;243;3
12821;0.102;3350;0,06;255;4
12841;0.102;3197;0,06;238;5
12861;0.1;3302;0,06;244;4
12881;0.098;3285;0,06;245;3
12901;0.098;3360;0,06;258;4
12921;0.098;3297;0,06;246;3
12941;0.098;3426;0,06;256;4
12961;0.098;3237;0,06;241;4
12981;0.098;3365;0,06;256;4
13001;0.096;3335;0,06;228;4
13021;0.094;3206;0,06;235;3
13041;0.094;3081;0,06;219;4
13061;0.094;3165;0,06;251;3
13081;0.094;3108;0,06;229;4
13101;0.094;3329;0,06;225;4
13121;0.094;3139;0,06;217;3
13141;0.094;3201;0,06;273;4
13161;0.094;3294;0,06;248;4
13181;0.094;3291;0,06;255;5
13201;0.094;3411;0,06;241;4
13221;0.094;3440;0,06;283;5
13241;0.094;3562;0,06;278;4
13261;0.094;3444;0,06;256;4
13281;0.094;3593;0,06;254;5
13301;0.094;3676;0,06;275;4
13321;0.094;3547;0,06;275;4
13341;0.094;3667;0,06;305;4
13361;0.094;3539;0,06;271;3
13381;0.094;3517;0,06;257;4
13401;0.094;3489;0,06;265;4
13421;0.094;3491;0,06;229;3
13441;0.094;3638;0,06;237;3
13461;0.094;2971;0,06;242;4
13481;0.092;2957;0,06;212;5
13501;0.092;3027;0,06;233;3
13521;0.092;3026;0,06;213;4
13541;0.092;2818;0,06;183;4
13561;0.092;2973;0,06;216;4
13581;0.092;3251;0,06;206;3
13601;0.092;3033;0,06;213;4
13621;0.088;3152;0,06;220;3
13641;0.086;2999;0,06;219;4
13661;0.086;3000;0,06;219;4
13681;0.086;3166;0,06;223;3
13701;0.086;3020;0,06;208;3
13721;0.086;2993;0,06;220;5
13741;0.086;3010;0,06;213;3
13761;0.086;3104;0,06;230;4
13781;0.086;3081;0,06;223;4
13801;0.086;3174;0,06;233;3
13821;0.086;3219;0,06;246;4
13841;0.086;3169;0,06;238;4
13861;0.086;2972;0,06;218;4
13881;0.086;2964;0,06;224;4
13901;0.086;2958;0,06;214;3
13921;0.086;2861;0,06;236;3
13941;0.084;2754;0,06;210;4
13961;0.084;2947;0,06;221;4
13981;0.084;2924;0,06;207;3
14001;0.084;3004;0,06;231;4
14021;0.084;2921;0,06;217;3
14041;0.082;2869;0,06;201;3
14061;0.082;2910;0,06;208;4
14081;0.082;2808;0,06;216;4
14101;0.082;3054;0,06;217;3
14121;0.082;3049;0,06;233;3
14141;0.082;2984;0,06;232;3
14161;0.082;3000;0,06;230;3
14181;0.082;2979;0,06;239;4
14201;0.082;3143;0,06;215;3
14221;0.082;3052;0,06;225;3
14241;0.082;2939;0,06;179;4
14261;0.082;2858;0,06;199;4
14281;0.082;2899;0,06;214;4
14301;0.082;2700;0,06;203;3
14321;0.082;2807;0,06;197;4
14341;0.082;3066;0,06;220;3
14361;0.082;3069;0,06;235;4
14381;0.082;3136;0,06;225;4
14401;0.082;3257;0,06;244;3
14421;0.082;3097;0,06;209;3
14441;0.082;2890;0,06;245;4
14461;0.082;2943;0,06;225;4
14481;0.082;2900;0,06;247;4
14501;0.082;2863;0,06;223;5
14521;0.082;3106;0,06;204;3
14541;0.082;3002;0,06;203;3
14561;0.082;2961;0,06;231;4
14581;0.08;3143;0,06;251;4
14601;0.08;3164;0,06;258;5
14621;0.08;2956;0,06;216;4
14641;0.08;2964;0,06;203;2
14661;0.078;2826;0,06;203;4
14681;0.078;2900;0,06;220;6
14701;0.078;3027;0,06;212;3
14721;0.076;3186;0,06;220;4
14741;0.076;2874;0,06;190;4
14761;0.076;2611;0,06;205;3
14781;0.076;2604;0,06;197;4
14801;0.076;2732;0,06;218;4
14821;0.076;2861;0,06;198;3
14841;0.074;2815;0,06;211;3
14861;0.074;2755;0,06;202;4
14881;0.074;2843;0,06;208;4
14901;0.074;2792;0,06;210;3
14921;0.074;2678;0,06;198;3
14941;0.072;2731;0,06;196;3
14961;0.072;2662;0,06;199;5
14981;0.07;2629;0,06;195;4
15001;0.07;2741;0,06;200;4
15021;0.07;2586;0,06;192;3
15041;0.07;2654;0,06;187;4
15061;0.07;2591;0,06;196;3
15081;0.07;2649;0,06;203;3
15101;0.07;2710;0,06;191;3
15121;0.07;2661;0,06;182;3
15141;0.07;2749;0,06;209;3
15161;0.07;2602;0,06;189;3
15181;0.07;2778;0,06;238;5
15201;0.07;2582;0,06;162;4
15221;0.07;2342;0,06;150;3
15241;0.07;2286;0,06;165;4
15261;0.07;2324;0,06;179;3
15281;0.07;2418;0,06;174;2
15301;0.07;2381;0,06;159;4
15321;0.07;2283;0,06;191;3
15341;0.07;2324;0,06;168;3
15361;0.07;2325;0,06;192;4
15381;0.07;2302;0,06;186;3
15401;0.068;2383;0,06;197;3
15421;0.068;2152;0,06;151;3
15441;0.068;2277;0,06;191;3
15461;0.066;2353;0,06;168;3
15481;0.066;2430;0,06;176;3
15501;0.066;2344;0,06;190;3
15521;0.066;2305;0,06;180;4
15541;0.066;2260;0,06;175;4
15561;0.066;2295;0,06;180;3
15581;0.066;2277;0,06;170;3
15601;0.066;2403;0,06;164;3
15621;0.066;2455;0,06;187;3
15641;0.064;2290;0,06;164;3
15661;0.064;2154;0,06;159;3
15681;0.064;2272;0,06;167;3
15701;0.062;2354;0,06;156;4
15721;0.062;2404;0,06;205;3
15741;0.062;2367;0,06;173;2
15761;0.062;2492;0,06;187;3
15781;0.06;2304;0,06;164;3
15801;0.06;2155;0,06;156;2
15821;0.06;2077;0,06;149;3
15841;0.06;2055;0,06;153;4
15861;0.06;1890;0,06;157;3
15881;0.06;2029;0,06;127;3
15901;0.06;2112;0,06;145;3
15921;0.06;2259;0,06;156;3
15941;0.06;2337;0,06;162;3
15961;0.058;2210;0,06;171;3
15981;0.058;2142;0,06;153;4
16001;0.058;2108;0,06;152;3
16021;0.058;2103;0,06;167;4
16041;0.058;2105;0,06;147;3
16061;0.058;2168;0,06;153;4
16081;0.058;2158;0,06;172;3
16101;0.058;2230;0,06;172;3
16121;0.058;2190;0,06;159;3
16141;0.058;2232;0,06;166;3
16161;0.058;2177;0,06;134;3
16181;0.058;2226;0,06;156;3
16201;0.058;2077;0,06;137;3
16221;0.058;2097;0,06;162;3
16241;0.058;2004;0,06;153;4
16261;0.058;2131;0,06;160;4
16281;0.058;2121;0,06;153;3
16301;0.056;2074;0,06;159;3
16321;0.056;2227;0,06;145;3
16341;0.056;2155;0,06;175;3
16361;0.056;2053;0,06;172;4
16381;0.056;2001;0,06;148;3
16401;0.056;2120;0,06;153;3
16421;0.056;2173;0,06;183;3
16441;0.056;2091;0,06;157;4
16461;0.056;2164;0,06;147;3
16481;0.056;2125;0,06;166;3
16501;0.056;2099;0,06;145;3
16521;0.056;2027;0,06;151;2
16541;0.056;2078;0,06;132;2
16561;0.056;1937;0,06;136;4
16581;0.056;1842;0,06;126;3
16601;0.056;1930;0,06;147;3
16621;0.056;2000;0,06;153;3
16641;0.056;2007;0,06;166;3
16661;0.056;2066;0,06;142;4
16681;0.056;2084;0,06;161;4
16701;0.056;2191;0,06;155;3
16721;0.056;2084;0,06;161;3
16741;0.056;2136;0,06;158;3
16761;0.056;2106;0,06;152;3
16781;0.056;2222;0,06;155;3
16801;0.056;2376;0,06;158;4
16821;0.056;2137;0,06;143;3
16841;0.056;2044;0,06;138;4
16861;0.056;2012;0,06;136;3
16881;0.056;1930;0,06;137;4
16901;0.056;1891;0,06;141;2
16921;0.056;1946;0,06;148;3
16941;0.056;1808;0,06;146;3
16961;0.056;1872;0,06;116;2
16981;0.056;1837;0,06;136;3
17001;0.056;1929;0,06;147;3
17021;0.056;1990;0,06;158;3
17041;0.056;1885;0,06;140;3
17061;0.056;1950;0,06;135;3
17081;0.054;1870;0,06;143;3
17101;0.054;2100;0,06;164;3
17121;0.054;1968;0,06;138;2
17141;0.054;1913;0,06;166;3
17161;0.054;1962;0,06;125;3
17181;0.054;1941;0,06;147;3
17201;0.054;1963;0,06;146;3
17221;0.052;1909;0,06;137;3
17241;0.052;1856;0,06;133;3
17261;0.052;1890;0,06;156;3
17281;0.05;1831;0,06;142;3
17301;0.05;1825;0,06;134;4
17321;0.05;1754;0,06;129;3
17341;0.05;1678;0,06;139;3
17361;0.05;1718;0,06;131;3
17381;0.05;1848;0,06;124;3
17401;0.05;1817;0,06;120;2
17421;0.05;1773;0,06;134;3
17441;0.05;1783;0,06;146;3
17461;0.05;1776;0,06;131;2
17481;0.048;1785;0,06;126;3
17501;0.048;1665;0,06;116;3
17521;0.048;1662;0,06;142;3
17541;0.048;1541;0,06;123;3
17561;0.048;1462;0,06;96;2
17581;0.048;1373;0,06;102;3
17601;0.046;1355;0,06;89;3
17621;0.046;1364;0,06;91;3
17641;0.046;1480;0,06;95;2
17661;0.046;1370;0,06;106;3
17681;0.046;1391;0,06;102;2
17701;0.046;1605;0,06;118;2
17721;0.046;1635;0,06;134;2
17741;0.046;1665;0,06;136;3
17761;0.046;1696;0,06;134;3
17781;0.046;1617;0,06;104;2
17801;0.046;1500;0,06;113;3
17821;0.046;1531;0,06;95;2
17841;0.046;1554;0,06;110;2
17861;0.046;1606;0,06;114;2
17881;0.046;1673;0,06;115;3
17901;0.046;1717;0,06;137;3
17921;0.046;1672;0,06;123;3
17941;0.046;1632;0,06;110;2
17961;0.046;1515;0,06;108;3
17981;0.046;1525;0,06;121;3
18001;0.046;1615;0,06;128;3
18021;0.046;1593;0,06;101;3
18041;0.046;1574;0,06;109;3
18061;0.046;1499;0,06;111;2
18081;0.046;1308;0,06;91;2
18101;0.044;1324;0,06;101;2
18121;0.044;1465;0,06;120;3
18141;0.042;1612;0,06;124;3
18161;0.042;1451;0,06;106;3
18181;0.042;1536;0,06;127;2
18201;0.042;1615;0,06;141;2
18221;0.042;1630;0,06;103;3
18241;0.042;1509;0,06;116;3
18261;0.042;1556;0,06;115;2
18281;0.04;1419;0,06;103;2
18301;0.04;1292;0,06;75;3
18321;0.04;1317;0,06;86;2
18341;0.04;1406;0,06;112;2
18361;0.04;1373;0,06;102;2
18381;0.04;1456;0,06;100;3
18401;0.04;1445;0,06;105;2
18421;0.04;1411;0,06;91;3
18441;0.04;1419;0,06;96;2
18461;0.04;1397;0,06;106;3
18481;0.04;1439;0,06;123;3
18501;0.04;1357;0,06;110;3
18521;0.04;1376;0,06;89;3
18541;0.04;1413;0,06;110;2
18561;0.038;1383;0,06;85;2
18581;0.038;1251;0,06;103;2
18601;0.038;1168;0,06;83;2
18621;0.038;1178;0,06;87;2
18641;0.038;1186;0,06;89;2
18661;0.038;1180;0,06;88;2
18681;0.038;1207;0,06;95;4
18701;0.038;1156;0,06;80;3
18721;0.036;1185;0,06;88;2
18741;0.036;1161;0,06;96;2
18761;0.036;1372;0,06;113;2
18781;0.036;1360;0,06;103;2
18801;0.036;1358;0,06;101;3
18821;0.036;1456;0,06;101;3
18841;0.036;1423;0,06;95;2
18861;0.036;1371;0,06;111;2
18881;0.036;1471;0,06;111;3
18901;0.036;1468;0,06;82;2
18921;0.036;1426;0,06;117;2
18941;0.036;1425;0,06;96;2
18961;0.036;1502;0,06;128;2
18981;0.036;1405;0,06;128;4
19001;0.036;1431;0,06;101;2
19021;0.036;1395;0,06;89;2
19041;0.036;1533;0,06;113;2
19061;0.036;1450;0,06;115;2
19081;0.036;1486;0,06;100;3
19101;0.036;1418;0,06;122;2
19121;0.036;1445;0,06;111;2
19141;0.036;1334;0,06;122;2
19161;0.036;1273;0,06;78;2
19181;0.036;1161;0,06;85;2
19201;0.036;1183;0,06;76;2
19221;0.036;1084;0,06;79;2
19241;0.036;1134;0,06;94;2
19261;0.036;1133;0,06;79;2
19281;0.036;1155;0,06;84;2
19301;0.036;1131;0,06;89;2
19321;0.036;1176;0,06;89;2
19341;0.036;1241;0,06;92;2
19361;0.036;1265;0,06;82;2
19381;0.036;1362;0,06;109;2
19401;0.036;1389;0,06;125;3
19421;0.036;1309;0,06;104;2
19441;0.036;1266;0,06;77;2
19461;0.036;1181;0,06;73;2
19481;0.036;1161;0,06;73;2
19501;0.036;1215;0,06;91;3
19521;0.036;1235;0,06;94;3
19541;0.036;1270;0,06;88;4
19561;0.036;1331;0,06;98;2
19581;0.036;1347;0,06;106;2
19601;0.036;1382;0,06;101;3
19621;0.036;1483;0,06;109;2
19641;0.036;1551;0,06;95;3
19661;0.036;1389;0,06;98;3
19681;0.036;1395;0,06;100;2
19701;0.036;1378;0,06;96;2
19721;0.036;1355;0,06;96;3
19741;0.036;1332;0,06;84;4
19761;0.036;1272;0,06;98;2
19781;0.036;1219;0,06;77;3
19801;0.036;1104;0,06;75;2
19821;0.036;1085;0,06;72;2
19841;0.036;1151;0,06;86;3
19861;0.036;1032;0,06;71;3
19881;0.036;1140;0,06;85;2
19901;0.036;1139;0,06;84;3
19921;0.036;1287;0,06;98;3
19941;0.036;1237;0,06;91;3
19961;0.036;1223;0,06;100;2
19981;0.036;1219;0,06;74;2
