round;percentage;totalTokens;epsilon;totalMessages;maxMessages
1;1;1884;0,06;1500;3
21;1;103617;0,06;19051;100
41;1;147583;0,06;24503;134
61;1;150921;0,06;24500;124
81;1;151552;0,06;25088;132
101;1;150576;0,06;25152;132
121;1;152431;0,06;25494;124
141;1;153723;0,06;25742;116
161;1;152541;0,06;25461;124
181;1;153473;0,06;24427;120
201;1;152581;0,06;25250;122
221;1;152972;0,06;25575;120
241;1;154122;0,06;25144;130
261;1;151009;0,06;24480;122
281;1;148904;0,06;25693;136
301;1;153550;0,06;25662;126
321;1;151335;0,06;25364;130
341;1;153559;0,06;25441;124
361;1;151834;0,06;25009;128
381;1;153151;0,06;24993;124
401;1;153918;0,06;25586;128
421;1;153438;0,06;24891;116
441;1;150855;0,06;24970;128
461;1;152016;0,06;26007;124
481;1;151572;0,06;25470;118
501;1;153662;0,06;25633;130
521;1;151107;0,06;25555;118
541;1;150468;0,06;25883;134
561;1;153074;0,06;25263;124
581;1;152347;0,06;26213;128
601;1;153969;0,06;25610;122
621;1;150425;0,06;25081;122
641;1;154645;0,06;25224;116
661;1;150673;0,06;25803;118
681;1;154770;0,06;26073;126
701;1;150269;0,06;25647;132
721;1;153984;0,06;25358;128
741;1;153566;0,06;25700;116
761;1;150386;0,06;25011;116
781;1;155205;0,06;25796;128
801;1;152237;0,06;25899;116
821;1;153510;0,06;25862;122
841;1;153682;0,06;25513;126
861;1;150788;0,06;25682;120
881;1;151557;0,06;25590;122
901;1;151783;0,06;25795;116
921;1;151858;0,06;25151;120
941;1;150673;0,06;25701;118
961;1;152726;0,06;25216;124
981;1;151526;0,06;25556;114
1001;1;151575;0,06;25577;114
1021;1;151577;0,06;25016;120
1041;1;152402;0,06;25845;130
1061;1;153497;0,06;25999;130
1081;1;151619;0,06;25606;126
1101;1;150377;0,06;25715;128
1121;1;153255;0,06;25713;130
1141;1;152538;0,06;26012;124
1161;1;154106;0,06;25538;124
1181;1;154611;0,06;25510;136
1201;1;154661;0,06;24816;126
1221;1;152009;0,06;25776;118
1241;1;152488;0,06;25286;122
1261;1;153623;0,06;25254;124
1281;1;150593;0,06;25233;118
1301;1;152207;0,06;26384;126
1321;1;153240;0,06;26194;122
1341;1;153193;0,06;25437;120
1361;1;151704;0,06;25546;122
1381;1;151058;0,06;24771;118
1401;1;150864;0,06;25195;130
1421;1;151475;0,06;25763;124
1441;1;152787;0,06;25731;130
1461;1;149974;0,06;25130;122
1481;1;153362;0,06;25487;126
1501;1;151928;0,06;26123;120
1521;1;150327;0,06;26313;122
1541;1;152448;0,06;25628;116
1561;1;155123;0,06;24987;116
1581;1;151165;0,06;24772;142
1601;1;152809;0,06;25008;124
1621;1;151231;0,06;25573;146
1641;1;153476;0,06;25748;122
1661;1;151446;0,06;25820;130
1681;1;153283;0,06;25367;122
1701;1;151231;0,06;25837;124
1721;1;151999;0,06;26218;134
1741;1;153498;0,06;25432;124
1761;1;151765;0,06;25997;134
1781;1;154465;0,06;25138;128
1801;1;151720;0,06;25821;128
1821;1;153657;0,06;26659;120
1841;1;155778;0,06;25754;128
1861;1;154463;0,06;25635;124
1881;1;152757;0,06;26312;122
1901;1;152132;0,06;26150;120
1921;1;151593;0,06;25067;122
1941;1;151731;0,06;25969;124
1961;1;153794;0,06;25641;118
1981;1;151461;0,06;25705;126
2001;1;154669;0,06;24983;118
2021;1;151284;0,06;25513;118
2041;1;152185;0,06;25659;114
2061;1;153417;0,06;25253;124
2081;1;154102;0,06;25998;128
2101;1;152861;0,06;25014;120
2121;1;151112;0,06;24796;138
2141;1;150862;0,06;25885;116
2161;1;152373;0,06;25770;128
2181;1;151117;0,06;25595;126
2201;1;152928;0,06;25620;132
2221;1;148575;0,06;25753;126
2241;1;151727;0,06;26127;130
2261;1;152671;0,06;26462;138
2281;1;152992;0,06;26110;122
2301;1;150173;0,06;25305;114
2321;1;151499;0,06;25841;130
2341;1;152764;0,06;26041;134
2361;1;154911;0,06;25536;132
2381;1;151983;0,06;25302;134
2401;1;149666;0,06;26019;134
2421;1;151945;0,06;25727;128
2441;1;152333;0,06;25770;122
2461;1;153197;0,06;25787;124
2481;1;154854;0,06;24801;118
2501;1;154329;0,06;24535;118
2521;1;150676;0,06;24672;118
2541;1;152549;0,06;25426;114
2561;1;151552;0,06;25749;134
2581;1;150500;0,06;25216;128
2601;1;153256;0,06;25329;118
2621;1;152063;0,06;25075;134
2641;1;153689;0,06;25914;128
2661;1;149643;0,06;25716;140
2681;1;156117;0,06;25471;114
2701;1;154448;0,06;25164;120
2721;1;153434;0,06;24774;120
2741;1;150142;0,06;26043;134
2761;1;154980;0,06;25364;122
2781;1;153729;0,06;24794;118
2801;1;152299;0,06;24794;118
2821;1;152825;0,06;24621;128
2841;1;150855;0,06;24908;112
2861;1;152763;0,06;25239;124
2881;1;151868;0,06;25821;120
2901;1;151740;0,06;25388;140
2921;1;150935;0,06;25673;118
2941;1;151415;0,06;25557;120
2961;1;153739;0,06;26017;114
2981;1;152802;0,06;25641;134
3001;1;152915;0,06;25524;126
3021;1;154643;0,06;25486;124
3041;1;152070;0,06;25487;120
3061;1;152091;0,06;25525;114
3081;1;152033;0,06;25779;122
3101;1;153132;0,06;24998;124
3121;1;149845;0,06;25915;120
3141;1;154241;0,06;25031;132
3161;1;152827;0,06;25768;136
3181;1;152733;0,06;25991;116
3201;1;151261;0,06;26173;124
3221;1;151356;0,06;25246;136
3241;1;154772;0,06;25444;126
3261;1;154096;0,06;25007;124
3281;1;153809;0,06;25937;128
3301;1;151184;0,06;25477;122
3321;1;151951;0,06;25750;122
3341;1;153383;0,06;26011;126
3361;1;152566;0,06;25819;122
3381;1;151543;0,06;25956;116
3401;1;152248;0,06;25223;122
3421;1;150244;0,06;26211;128
3441;1;151632;0,06;26212;130
3461;1;153434;0,06;25713;116
3481;1;154579;0,06;25397;130
3501;1;154760;0,06;25452;148
3521;1;154546;0,06;25138;126
3541;1;153081;0,06;24074;126
3561;1;152118;0,06;24750;118
3581;1;153650;0,06;25110;120
3601;1;153971;0,06;25229;134
3621;1;152561;0,06;25182;110
3641;1;152291;0,06;25717;142
3661;1;152073;0,06;25626;124
3681;1;153577;0,06;25432;136
3701;1;150543;0,06;25457;124
3721;1;153194;0,06;25711;120
3741;1;149318;0,06;25843;134
3761;1;151053;0,06;25837;116
3781;1;152958;0,06;25881;140
3801;1;151945;0,06;25846;112
3821;1;152570;0,06;25421;120
3841;1;152529;0,06;24937;128
3861;1;151987;0,06;24896;124
3881;1;152823;0,06;24931;120
3901;1;152194;0,06;25707;122
3921;1;152119;0,06;25734;116
3941;1;151217;0,06;25577;116
3961;1;153762;0,06;24885;118
3981;1;150803;0,06;25049;128
4001;1;152913;0,06;24966;128
4021;1;153879;0,06;25057;114
4041;1;152163;0,06;25314;124
4061;1;151207;0,06;25956;132
4081;1;153991;0,06;25427;130
4101;1;154398;0,06;25278;128
4121;1;151845;0,06;25154;118
4141;1;153444;0,06;25278;118
4161;1;152004;0,06;24862;112
4181;1;152726;0,06;25060;130
4201;1;152579;0,06;25773;124
4221;1;153397;0,06;26079;122
4241;1;152855;0,06;26083;118
4261;1;154496;0,06;25021;112
4281;1;153915;0,06;25282;122
4301;1;151518;0,06;25696;120
4321;1;149905;0,06;25778;138
4341;1;152117;0,06;26170;124
4361;1;152467;0,06;26448;122
4381;1;151666;0,06;25936;126
4401;1;152815;0,06;26753;126
4421;1;155074;0,06;25693;118
4441;1;151415;0,06;25807;124
4461;1;154671;0,06;26257;126
4481;1;153069;0,06;25590;114
4501;1;150374;0,06;25624;118
4521;1;152901;0,06;24974;120
4541;1;153561;0,06;25271;116
4561;1;150780;0,06;25700;120
4581;1;153975;0,06;25298;122
4601;1;152167;0,06;24908;124
4621;1;154624;0,06;25329;116
4641;1;150367;0,06;25276;134
4661;1;152766;0,06;25173;110
4681;1;155584;0,06;25943;130
4701;1;155379;0,06;25175;134
4721;1;152237;0,06;24987;116
4741;1;150524;0,06;25543;130
4761;1;152147;0,06;25563;118
4781;1;152124;0,06;25824;112
4801;1;153345;0,06;25671;120
4821;1;152503;0,06;25825;136
4841;1;152423;0,06;25606;130
4861;1;152431;0,06;25321;112
4881;1;154675;0,06;24902;112
4901;1;153516;0,06;25812;134
4921;1;152017;0,06;25492;134
4941;1;151502;0,06;25185;114
4961;1;153519;0,06;24771;116
4981;1;152229;0,06;25264;128
5001;1;155627;0,06;25126;114
5021;1;155512;0,06;25383;126
5041;1;154363;0,06;24770;110
5061;1;150542;0,06;25313;144
5081;1;153000;0,06;25614;130
5101;1;154193;0,06;25510;126
5121;1;153670;0,06;24832;118
5141;1;151730;0,06;25497;130
5161;1;149956;0,06;24846;124
5181;1;151976;0,06;25526;118
5201;1;154151;0,06;25333;124
5221;1;152550;0,06;24550;124
5241;1;149246;0,06;25133;122
5261;1;150740;0,06;25732;138
5281;1;149846;0,06;24718;128
5301;1;152001;0,06;26093;122
5321;1;153632;0,06;25630;124
5341;1;151899;0,06;26096;122
5361;1;153445;0,06;24994;124
5381;1;152591;0,06;25866;128
5401;1;152338;0,06;25899;130
5421;1;153079;0,06;25928;122
5441;1;154171;0,06;25720;128
5461;1;152961;0,06;25630;124
5481;1;153101;0,06;26148;122
5501;1;151071;0,06;25461;130
5521;1;151941;0,06;25493;138
5541;1;153420;0,06;25320;124
5561;1;153708;0,06;25337;126
5581;1;151708;0,06;25273;134
5601;1;151652;0,06;25274;136
5621;1;152767;0,06;25065;128
5641;1;151242;0,06;24890;134
5661;1;153023;0,06;25591;116
5681;1;150618;0,06;25596;130
5701;1;152787;0,06;24970;126
5721;1;152582;0,06;25808;126
5741;1;153306;0,06;25194;116
5761;1;152183;0,06;24879;128
5781;1;153390;0,06;25450;132
5801;1;152330;0,06;25249;130
5821;1;149328;0,06;25549;132
5841;1;153553;0,06;26117;126
5861;1;154843;0,06;25187;116
5881;1;151807;0,06;25413;112
5901;1;153324;0,06;25367;122
5921;1;152116;0,06;25669;126
5941;1;151354;0,06;25276;126
5961;1;154730;0,06;26264;118
5981;1;154566;0,06;25861;122
6001;1;150639;0,06;25724;126
6021;1;153160;0,06;25836;126
6041;1;151630;0,06;25166;126
6061;1;152376;0,06;25609;128
6081;1;154388;0,06;25326;116
6101;1;152532;0,06;25488;128
6121;1;153113;0,06;25700;132
6141;1;154515;0,06;25213;120
6161;1;153672;0,06;25870;132
6181;1;155892;0,06;25564;122
6201;1;151784;0,06;25809;124
6221;1;152429;0,06;25203;116
6241;1;150634;0,06;25877;122
6261;1;151894;0,06;26225;132
6281;1;153305;0,06;24839;126
6301;1;153231;0,06;25085;122
6321;1;153246;0,06;26131;126
6341;1;150784;0,06;26166;122
6361;1;154694;0,06;26420;134
6381;1;152045;0,06;26242;130
6401;1;153228;0,06;25227;120
6421;1;154049;0,06;25203;122
6441;1;152173;0,06;24871;120
6461;1;150433;0,06;25076;126
6481;1;152296;0,06;26412;128
6501;1;154029;0,06;25689;134
6521;1;154993;0,06;25969;122
6541;1;153145;0,06;25312;126
6561;1;151502;0,06;25908;126
6581;1;154481;0,06;25236;126
6601;1;152684;0,06;25597;124
6621;1;150011;0,06;25681;122
6641;1;151069;0,06;25724;136
6661;1;152426;0,06;25679;142
6681;1;152825;0,06;25378;114
6701;1;153147;0,06;26302;120
6721;1;152874;0,06;25599;132
6741;1;153019;0,06;24818;136
6761;1;152713;0,06;25275;124
6781;1;151897;0,06;25323;140
6801;1;150413;0,06;25573;124
6821;1;153542;0,06;25507;122
6841;1;153742;0,06;25633;112
6861;1;149495;0,06;25655;130
6881;1;154572;0,06;24896;120
6901;1;149763;0,06;25800;116
6921;1;152579;0,06;26289;122
6941;1;154089;0,06;25808;122
6961;1;151893;0,06;25687;122
6981;1;154342;0,06;25574;124
7001;1;151754;0,06;25641;132
7021;1;155163;0,06;25570;132
7041;1;151238;0,06;25553;120
7061;1;150637;0,06;25875;124
7081;1;151262;0,06;26181;124
7101;1;153402;0,06;25800;132
7121;1;153123;0,06;25764;130
7141;1;152672;0,06;25545;118
7161;1;152087;0,06;25385;128
7181;1;155406;0,06;25558;120
7201;1;148597;0,06;26227;124
7221;1;152323;0,06;25745;132
7241;1;151779;0,06;25904;118
7261;1;151887;0,06;25960;140
7281;1;153072;0,06;25810;122
7301;1;152144;0,06;25414;120
7321;1;150327;0,06;24908;124
7341;1;151380;0,06;25590;134
7361;1;155833;0,06;25801;124
7381;1;150017;0,06;25322;126
7401;1;150405;0,06;25896;134
7421;1;152096;0,06;25431;122
7441;1;151206;0,06;25203;118
7461;1;153964;0,06;25225;120
7481;1;150530;0,06;25132;120
7501;1;153056;0,06;25759;124
7521;1;154101;0,06;25774;130
7541;1;151462;0,06;26258;130
7561;1;154401;0,06;26105;124
7581;1;152316;0,06;25853;118
7601;1;152521;0,06;25739;120
7621;1;151571;0,06;26376;126
7641;1;150015;0,06;25768;114
7661;1;154585;0,06;25323;116
7681;1;151848;0,06;24960;122
7701;1;151027;0,06;25519;122
7721;1;154191;0,06;26536;120
7741;1;153078;0,06;26192;130
7761;1;153467;0,06;24698;120
7781;1;149446;0,06;26732;120
7801;1;154338;0,06;26232;138
7821;1;152485;0,06;25954;132
7841;1;151866;0,06;25959;128
7861;1;151865;0,06;26474;142
7881;1;153625;0,06;25030;124
7901;1;152341;0,06;25268;126
7921;1;152737;0,06;25976;118
7941;1;153664;0,06;24565;126
7961;1;152425;0,06;24992;126
7981;1;149127;0,06;24944;114
8001;1;153119;0,06;25228;126
8021;1;154361;0,06;25434;118
8041;1;155228;0,06;25443;118
8061;1;151872;0,06;25429;124
8081;1;153190;0,06;26145;122
8101;1;154466;0,06;25992;128
8121;1;153567;0,06;25807;128
8141;1;151200;0,06;25771;118
8161;1;151216;0,06;25707;114
8181;1;153043;0,06;25427;126
8201;1;151882;0,06;24783;122
8221;1;151659;0,06;25067;106
8241;1;154096;0,06;25566;136
8261;1;154477;0,06;25706;126
8281;1;152646;0,06;25073;122
8301;1;153528;0,06;25494;132
8321;1;152310;0,06;25676;126
8341;1;152900;0,06;25124;126
8361;1;151041;0,06;25177;140
8381;1;152111;0,06;25457;128
8401;1;152151;0,06;25593;148
8421;1;153232;0,06;25412;116
8441;1;153530;0,06;25595;126
8461;1;155197;0,06;25052;128
8481;1;152855;0,06;25206;118
8501;1;152329;0,06;25853;120
8521;1;152827;0,06;26354;132
8541;1;153248;0,06;25462;118
8561;1;152341;0,06;24850;136
8581;1;149123;0,06;25358;128
8601;1;150618;0,06;26647;126
8621;1;154018;0,06;25741;124
8641;1;151585;0,06;26207;138
8661;1;153462;0,06;25665;124
8681;1;151390;0,06;25052;120
8701;1;152640;0,06;25144;134
8721;1;153004;0,06;25887;130
8741;1;152690;0,06;26181;138
8761;1;152135;0,06;26248;146
8781;1;153482;0,06;25983;136
8801;1;152691;0,06;25082;122
8821;1;151710;0,06;26077;124
8841;1;152942;0,06;25008;120
8861;1;151762;0,06;25529;134
8881;1;154058;0,06;25560;132
8901;1;152395;0,06;25365;126
8921;1;151232;0,06;25790;136
8941;1;152177;0,06;25958;120
8961;1;149842;0,06;25598;114
8981;1;154694;0,06;26490;120
9001;1;154017;0,06;25699;128
9021;1;151392;0,06;25225;126
9041;1;152475;0,06;25491;118
9061;1;151557;0,06;26062;146
9081;1;152896;0,06;25307;128
9101;1;151199;0,06;25041;128
9121;1;152693;0,06;25353;126
9141;1;150266;0,06;25721;134
9161;1;153738;0,06;25074;122
9181;1;151472;0,06;25151;124
9201;1;154360;0,06;25669;130
9221;1;154866;0,06;25067;118
9241;1;151722;0,06;25245;116
9261;1;151781;0,06;24928;116
9281;1;151927;0,06;26098;132
9301;1;153239;0,06;25607;140
9321;1;151815;0,06;25280;126
9341;1;150590;0,06;25481;124
9361;1;151372;0,06;25286;122
9381;1;151612;0,06;26240;132
9401;1;151697;0,06;25728;120
9421;1;150939;0,06;25591;130
9441;1;152032;0,06;25406;132
9461;1;155298;0,06;25548;120
9481;1;154285;0,06;26065;126
9501;1;152872;0,06;25154;128
9521;1;156418;0,06;24725;122
9541;1;151237;0,06;24940;140
9561;1;152093;0,06;25101;118
9581;1;150949;0,06;26330;120
9601;1;153953;0,06;25835;122
9621;1;150883;0,06;25438;130
9641;1;154299;0,06;24857;114
9661;1;150208;0,06;25515;130
9681;1;150186;0,06;25399;124
9701;1;152956;0,06;25675;126
9721;1;154800;0,06;25582;126
9741;1;153013;0,06;25636;124
9761;1;152093;0,06;25299;122
9781;1;151368;0,06;25632;138
9801;1;151114;0,06;25744;132
9821;1;154782;0,06;25997;120
9841;1;153582;0,06;25542;126
9861;1;152296;0,06;25647;124
9881;1;152387;0,06;25364;112
9901;1;151739;0,06;25800;132
9921;1;152043;0,06;25551;136
9941;1;153199;0,06;25748;128
9961;1;151524;0,06;25337;120
9981;1;150099;0,06;25891;118
10001;1;151744;0,06;26153;120
10021;1;154955;0,06;26156;146
10041;1;152478;0,06;25876;126
10061;1;154595;0,06;25939;150
10081;1;150671;0,06;26067;124
10101;1;153417;0,06;25102;116
10121;1;152516;0,06;25343;126
10141;1;154530;0,06;26214;120
10161;1;154811;0,06;25403;120
10181;1;152224;0,06;25491;126
10201;1;151443;0,06;25140;106
10221;1;153360;0,06;26053;120
10241;1;151657;0,06;25755;132
10261;1;150579;0,06;26107;120
10281;1;152343;0,06;25695;124
10301;1;153462;0,06;25995;126
10321;1;152951;0,06;25715;136
10341;1;152312;0,06;25184;122
10361;1;152114;0,06;24898;130
10381;1;150755;0,06;25649;130
10401;1;153682;0,06;26335;120
10421;1;151717;0,06;25745;124
10441;1;152508;0,06;25980;120
10461;1;154760;0,06;25449;126
10481;1;153039;0,06;25079;130
10501;1;148757;0,06;25883;124
10521;1;153330;0,06;25884;122
10541;1;150990;0,06;25830;132
10561;1;151824;0,06;25719;128
10581;1;155776;0,06;25523;122
10601;1;152093;0,06;25301;120
10621;1;151588;0,06;25659;126
10641;1;155838;0,06;25184;120
10661;1;151880;0,06;25675;148
10681;1;153140;0,06;26054;134
10701;1;153310;0,06;25543;114
10721;1;151013;0,06;25617;116
10741;1;151912;0,06;26305;124
10761;1;152169;0,06;25688;120
10781;1;155499;0,06;24622;116
10801;1;155109;0,06;25118;118
10821;1;151272;0,06;25200;122
10841;1;150391;0,06;25034;118
10861;1;152767;0,06;26420;122
10881;1;152767;0,06;24780;120
10901;1;149304;0,06;25549;124
10921;1;152696;0,06;25440;122
10941;1;151470;0,06;25133;118
10961;1;150435;0,06;25812;136
10981;1;153221;0,06;26270;130
11001;1;152710;0,06;26738;126
11021;1;152451;0,06;26106;120
11041;1;155233;0,06;25618;124
11061;1;150203;0,06;25236;118
11081;1;152399;0,06;25686;116
11101;1;150245;0,06;25901;116
11121;1;153666;0,06;26591;128
11141;1;152342;0,06;26300;134
11161;1;156028;0,06;26049;124
11181;1;152325;0,06;26084;128
11201;1;153598;0,06;24896;122
11221;1;152110;0,06;25306;130
11241;1;151382;0,06;25718;130
11261;1;152346;0,06;25733;140
11281;1;149557;0,06;25568;120
11301;1;153640;0,06;25141;128
11321;1;153151;0,06;25593;116
11341;1;150076;0,06;25625;130
11361;1;153269;0,06;26396;124
11381;1;152710;0,06;25602;130
11401;1;150818;0,06;25491;124
11421;1;152570;0,06;24719;122
11441;1;152184;0,06;25267;132
11461;1;151645;0,06;25376;120
11481;1;154990;0,06;25261;126
11501;1;153474;0,06;26146;148
11521;1;151040;0,06;25474;118
11541;1;152250;0,06;25211;130
11561;1;151702;0,06;25258;112
11581;1;153542;0,06;25997;124
11601;1;155351;0,06;25847;130
11621;1;150357;0,06;25307;124
11641;1;149932;0,06;26061;130
11661;1;153152;0,06;25509;118
11681;1;153199;0,06;24908;120
11701;1;151670;0,06;25477;132
11721;1;153859;0,06;25556;130
11741;1;151054;0,06;25756;128
11761;1;153212;0,06;24882;130
11781;1;151992;0,06;25335;124
11801;1;152429;0,06;25282;116
11821;1;150913;0,06;25679;120
11841;1;150987;0,06;26351;134
11861;1;153017;0,06;25870;128
11881;1;151408;0,06;25253;132
11901;1;152497;0,06;25348;114
11921;1;149801;0,06;25331;114
11941;1;151990;0,06;25374;126
11961;1;152876;0,06;25144;124
11981;1;150845;0,06;25466;116
12001;1;150059;0,06;26303;120
12021;1;149726;0,06;26760;128
12041;1;153614;0,06;25955;138
12061;1;153374;0,06;25271;124
12081;1;152450;0,06;25679;120
12101;1;149859;0,06;25758;124
12121;1;152152;0,06;25783;124
12141;1;151431;0,06;25553;122
12161;1;152675;0,06;25346;124
12181;1;151485;0,06;24901;120
12201;1;153131;0,06;25357;124
12221;1;152284;0,06;25460;122
12241;1;153960;0,06;26392;124
12261;1;154293;0,06;25109;120
12281;1;150791;0,06;25131;116
12301;1;151697;0,06;25587;126
12321;1;152491;0,06;25053;114
12341;1;152808;0,06;25105;118
12361;1;152242;0,06;25971;138
12381;1;151981;0,06;25244;120
12401;1;150972;0,06;25147;122
12421;1;152418;0,06;25298;126
12441;1;155282;0,06;24775;112
12461;1;151779;0,06;25100;114
12481;1;150699;0,06;25408;132
12501;1;152579;0,06;25256;128
12521;1;155512;0,06;24764;132
12541;1;151451;0,06;25274;118
12561;1;151656;0,06;25257;120
12581;1;152043;0,06;25721;128
12601;1;150399;0,06;25659;122
12621;1;151998;0,06;25592;116
12641;1;151757;0,06;26241;122
12661;1;152581;0,06;26468;134
12681;1;156092;0,06;24876;110
12701;1;148576;0,06;25339;122
12721;1;153472;0,06;25497;122
12741;1;152840;0,06;25406;116
12761;1;152922;0,06;25788;122
12781;1;152555;0,06;25749;130
12801;1;154779;0,06;26052;120
12821;1;153259;0,06;24924;118
12841;1;152705;0,06;25452;116
12861;1;150259;0,06;25879;122
12881;1;154971;0,06;25612;124
12901;1;152763;0,06;25977;128
12921;1;152158;0,06;25119;122
12941;1;152000;0,06;25712;138
12961;1;152720;0,06;26530;124
12981;1;150682;0,06;25833;112
13001;1;153543;0,06;25662;120
13021;1;153461;0,06;25109;118
13041;1;152320;0,06;25012;120
13061;1;151569;0,06;25073;122
13081;1;153226;0,06;25585;118
13101;1;154334;0,06;25430;130
13121;1;153080;0,06;25413;124
13141;1;150329;0,06;25426;118
13161;1;151214;0,06;25788;118
13181;1;153515;0,06;25710;126
13201;1;151472;0,06;25106;124
13221;1;152243;0,06;25659;128
13241;1;150541;0,06;25371;126
13261;1;152876;0,06;24838;134
13281;1;150024;0,06;25962;132
13301;1;154489;0,06;25892;124
13321;1;153600;0,06;24972;116
13341;1;152946;0,06;25454;118
13361;1;152826;0,06;24989;120
13381;1;153499;0,06;25406;122
13401;1;151828;0,06;25777;120
13421;1;152303;0,06;25297;128
13441;1;153625;0,06;25942;138
13461;1;153087;0,06;24945;120
13481;1;150533;0,06;25348;118
13501;1;152911;0,06;25500;122
13521;1;154425;0,06;25042;124
13541;1;152640;0,06;25502;134
13561;1;153869;0,06;25719;126
13581;1;155625;0,06;25386;110
13601;1;150660;0,06;26291;132
13621;1;153367;0,06;26339;120
13641;1;152028;0,06;25886;136
13661;1;153690;0,06;25996;124
13681;1;152197;0,06;25417;128
13701;1;151914;0,06;25489;128
13721;1;152083;0,06;25198;114
13741;1;153394;0,06;24800;116
13761;1;152896;0,06;25595;120
13781;1;153826;0,06;25728;116
13801;1;150984;0,06;25622;116
13821;1;152706;0,06;25232;124
13841;1;152113;0,06;25972;122
13861;1;152704;0,06;25647;122
13881;1;151637;0,06;25978;128
13901;1;154243;0,06;25425;118
13921;1;152817;0,06;24521;120
13941;1;151843;0,06;25540;128
13961;1;154006;0,06;25877;126
13981;1;149905;0,06;25466;126
14001;1;153204;0,06;25420;126
14021;1;152859;0,06;25391;130
14041;1;152762;0,06;25224;122
14061;1;152559;0,06;24950;118
14081;1;152468;0,06;25010;128
14101;1;152088;0,06;25140;114
14121;1;150102;0,06;26089;122
14141;1;153362;0,06;25435;116
14161;1;153050;0,06;25083;130
14181;1;153008;0,06;25593;126
14201;1;154572;0,06;25892;120
14221;1;152783;0,06;25050;126
14241;1;152877;0,06;25857;114
14261;1;151170;0,06;25932;128
14281;1;152000;0,06;25002;122
14301;1;151113;0,06;24942;124
14321;1;155016;0,06;25341;120
14341;1;150739;0,06;25806;116
14361;1;152548;0,06;25177;120
14381;1;155668;0,06;24789;110
14401;1;152694;0,06;24529;126
14421;1;151430;0,06;25437;130
14441;1;152050;0,06;26520;124
14461;1;154070;0,06;25512;124
14481;1;150549;0,06;25123;124
14501;1;154134;0,06;25455;116
14521;1;153916;0,06;26108;120
14541;1;153742;0,06;25132;124
14561;1;153995;0,06;25341;122
14581;1;152652;0,06;25225;132
14601;1;149877;0,06;25383;124
14621;1;154051;0,06;25528;122
14641;1;154651;0,06;25651;124
14661;1;153528;0,06;25725;124
14681;1;152772;0,06;25426;130
14701;1;154159;0,06;25644;122
14721;1;152906;0,06;25578;130
14741;1;153673;0,06;25102;118
14761;1;152026;0,06;25446;118
14781;1;153718;0,06;24960;112
14801;1;154197;0,06;24980;122
14821;1;150082;0,06;25961;152
14841;1;155649;0,06;26367;120
14861;1;151854;0,06;25500;126
14881;1;151605;0,06;25506;134
14901;1;152863;0,06;25557;120
14921;1;152307;0,06;25698;134
14941;1;153229;0,06;26225;128
14961;1;151667;0,06;24968;126
14981;1;151632;0,06;25520;128
15001;1;152986;0,06;25719;128
15021;1;151551;0,06;26261;130
15041;1;152054;0,06;26240;128
15061;1;152705;0,06;25671;120
15081;1;152107;0,06;25976;128
15101;1;149457;0,06;26117;116
15121;1;150794;0,06;26234;130
15141;1;151643;0,06;25727;128
15161;1;151761;0,06;25693;122
15181;1;153088;0,06;25521;120
15201;1;152926;0,06;25175;126
15221;1;153767;0,06;25173;136
15241;1;151107;0,06;25017;124
15261;1;150475;0,06;25203;120
15281;1;154805;0,06;25251;114
15301;1;152448;0,06;26722;130
15321;1;154547;0,06;24950;114
15341;1;150898;0,06;25458;122
15361;1;152531;0,06;25053;130
15381;1;153691;0,06;24988;114
15401;1;150991;0,06;25033;138
15421;1;153666;0,06;26012;128
15441;1;154622;0,06;25313;120
15461;1;152643;0,06;25326;124
15481;1;152671;0,06;25491;114
15501;1;149730;0,06;25429;130
15521;1;151272;0,06;25763;122
15541;1;153442;0,06;26011;126
15561;1;153236;0,06;25072;116
15581;1;152180;0,06;25359;122
15601;1;151284;0,06;25646;124
15621;1;156479;0,06;25944;124
15641;1;155057;0,06;25965;128
15661;1;150584;0,06;25635;120
15681;1;152764;0,06;25509;132
15701;1;149589;0,06;25780;122
15721;1;151651;0,06;26637;140
15741;1;154678;0,06;25921;126
15761;1;152315;0,06;26161;128
15781;1;151061;0,06;25770;116
15801;1;152146;0,06;26131;134
15821;1;151180;0,06;25513;120
15841;1;151758;0,06;24814;110
15861;1;151700;0,06;25321;150
15881;1;151327;0,06;25887;130
15901;1;153497;0,06;24751;130
15921;1;151458;0,06;25856;124
15941;1;153283;0,06;26069;128
15961;1;152561;0,06;25733;124
15981;1;154183;0,06;25418;126
16001;1;150427;0,06;26104;134
16021;1;151029;0,06;25763;120
16041;1;152456;0,06;25250;134
16061;1;150291;0,06;25035;120
16081;1;152995;0,06;25710;126
16101;1;153900;0,06;26412;120
16121;1;156576;0,06;25377;138
16141;1;153148;0,06;25808;124
16161;1;153158;0,06;25424;150
16181;1;154863;0,06;24704;122
16201;1;149337;0,06;25257;122
16221;1;149849;0,06;26092;130
16241;1;153056;0,06;25365;144
16261;1;154587;0,06;25431;124
16281;1;151262;0,06;25809;130
16301;1;151488;0,06;26603;140
16321;1;151828;0,06;26326;122
16341;1;154045;0,06;25805;114
16361;1;152497;0,06;25334;122
16381;1;151713;0,06;26300;128
16401;1;153126;0,06;26050;128
16421;1;153649;0,06;26037;126
16441;1;151982;0,06;26217;122
16461;1;152092;0,06;25626;120
16481;1;152196;0,06;26140;126
16501;1;151161;0,06;26155;122
16521;1;152496;0,06;26222;128
16541;1;152102;0,06;25861;138
16561;1;152410;0,06;26371;134
16581;1;153151;0,06;25355;124
16601;1;151620;0,06;25742;116
16621;1;152240;0,06;25397;124
16641;1;155036;0,06;26366;142
16661;1;150290;0,06;25636;132
16681;1;153987;0,06;25635;126
16701;1;150570;0,06;25679;128
16721;1;152578;0,06;25587;126
16741;1;149667;0,06;26121;126
16761;1;154257;0,06;25847;120
16781;1;152366;0,06;25338;130
16801;1;152568;0,06;25549;128
16821;1;151396;0,06;25478;128
16841;1;153338;0,06;25778;130
16861;1;153063;0,06;25299;130
16881;1;152330;0,06;25180;114
16901;1;152473;0,06;25350;122
16921;1;153445;0,06;25875;118
16941;1;151336;0,06;25856;132
16961;1;153124;0,06;25189;120
16981;1;151815;0,06;25361;128
17001;1;153544;0,06;25822;130
17021;1;155024;0,06;25604;114
17041;1;152396;0,06;24619;124
17061;1;149159;0,06;25531;120
17081;1;151185;0,06;25955;124
17101;1;153242;0,06;26460;132
17121;1;154659;0,06;26023;132
17141;1;153199;0,06;25866;122
17161;1;153021;0,06;25815;136
17181;1;151828;0,06;25513;136
17201;1;152030;0,06;25350;116
17221;1;153694;0,06;25493;136
17241;1;153995;0,06;24917;120
17261;1;153275;0,06;25046;112
17281;1;150039;0,06;25688;120
17301;1;148812;0,06;25521;116
17321;1;153587;0,06;25731;116
17341;1;151400;0,06;26231;132
17361;1;153443;0,06;24875;110
17381;1;152012;0,06;25544;130
17401;1;151223;0,06;25810;130
17421;1;151173;0,06;26289;150
17441;1;151680;0,06;25632;126
17461;1;153832;0,06;25104;140
17481;1;151437;0,06;25833;142
17501;1;152609;0,06;25178;124
17521;1;153889;0,06;25080;118
17541;1;154225;0,06;25609;124
17561;1;153580;0,06;25762;128
17581;1;154422;0,06;25345;122
17601;1;154457;0,06;25109;136
17621;1;154505;0,06;24805;110
17641;1;152378;0,06;25099;124
17661;1;152585;0,06;25426;122
17681;1;151291;0,06;25472;132
17701;1;154115;0,06;25081;142
17721;1;152830;0,06;25394;126
17741;1;152289;0,06;25303;124
17761;1;150136;0,06;25108;128
17781;1;152371;0,06;25681;118
17801;1;154193;0,06;25464;124
17821;1;154917;0,06;25483;138
17841;1;149846;0,06;25369;120
17861;1;152572;0,06;25801;134
17881;1;153673;0,06;25621;126
17901;1;153947;0,06;25451;120
17921;1;151938;0,06;24864;128
17941;1;152223;0,06;25827;132
17961;1;153363;0,06;24914;110
17981;1;151913;0,06;25649;140
18001;1;150876;0,06;25710;116
18021;1;153359;0,06;25121;116
18041;1;154729;0,06;25340;118
18061;1;150332;0,06;25462;124
18081;1;152964;0,06;26246;124
18101;1;150437;0,06;25527;112
18121;1;150254;0,06;26196;136
18141;1;150500;0,06;25309;122
18161;1;152041;0,06;25724;124
18181;1;152014;0,06;26201;122
18201;1;149336;0,06;26164;132
18221;1;151518;0,06;25575;128
18241;1;150762;0,06;25816;122
18261;1;154898;0,06;25188;114
18281;1;152423;0,06;25163;134
18301;1;151440;0,06;25634;120
18321;1;151031;0,06;26150;128
18341;1;152737;0,06;25762;122
18361;1;154541;0,06;25304;116
18381;1;153284;0,06;25349;124
18401;1;152548;0,06;26539;142
18421;1;154888;0,06;25251;114
18441;1;151807;0,06;25556;116
18461;1;152667;0,06;25210;122
18481;1;153628;0,06;25430;124
18501;1;153051;0,06;25634;122
18521;1;152508;0,06;25049;112
18541;1;151361;0,06;25638;122
18561;1;152218;0,06;25790;128
18581;1;154067;0,06;25672;130
18601;1;153245;0,06;24718;130
18621;1;151587;0,06;25252;134
18641;1;150349;0,06;25407;130
18661;1;153322;0,06;24899;126
18681;1;151766;0,06;25381;112
18701;1;152827;0,06;26448;128
18721;1;151019;0,06;26080;134
18741;1;153116;0,06;25775;112
18761;1;154312;0,06;25202;122
18781;1;152453;0,06;25145;126
18801;1;151581;0,06;25485;122
18821;1;152575;0,06;26336;136
18841;1;152588;0,06;25747;128
18861;1;149652;0,06;25387;118
18881;1;152785;0,06;26336;134
18901;1;151583;0,06;25210;112
18921;1;152649;0,06;25430;110
18941;1;151626;0,06;26064;120
18961;1;152479;0,06;26145;124
18981;1;151947;0,06;26098;126
19001;1;154217;0,06;26195;130
19021;1;152267;0,06;25327;126
19041;1;151006;0,06;25171;122
19061;1;152193;0,06;25417;124
19081;1;152734;0,06;25003;128
19101;1;150639;0,06;25701;134
19121;1;152858;0,06;25840;120
19141;1;154770;0,06;24686;120
19161;1;153843;0,06;24655;128
19181;1;154184;0,06;25547;122
19201;1;152484;0,06;24961;128
19221;1;155267;0,06;26175;130
19241;1;151161;0,06;25582;118
19261;1;153905;0,06;25143;132
19281;1;153639;0,06;25439;128
19301;1;151754;0,06;25322;136
19321;1;153381;0,06;25361;124
19341;1;151897;0,06;25350;130
19361;1;151855;0,06;25227;130
19381;1;155166;0,06;25979;144
19401;1;149900;0,06;25890;130
19421;1;154365;0,06;25544;118
19441;1;152343;0,06;25484;124
19461;1;154213;0,06;26263;132
19481;1;152235;0,06;25716;120
19501;1;152046;0,06;26181;132
19521;1;150585;0,06;25610;116
19541;1;152156;0,06;25973;144
19561;1;152652;0,06;25830;134
19581;1;150750;0,06;26004;116
19601;1;153561;0,06;25906;114
19621;1;153023;0,06;25014;126
19641;1;151727;0,06;24799;116
19661;1;152181;0,06;25707;114
19681;1;152079;0,06;25784;122
19701;1;153401;0,06;25968;126
19721;1;153016;0,06;25439;122
19741;1;156136;0,06;25197;130
19761;1;154820;0,06;24690;118
19781;1;151816;0,06;24917;130
19801;1;153013;0,06;25659;128
19821;1;151097;0,06;25609;130
19841;1;150862;0,06;25254;126
19861;1;151299;0,06;25296;130
19881;1;150554;0,06;25201;120
19901;1;151627;0,06;25523;138
19921;1;153995;0,06;25907;130
19941;1;151665;0,06;24718;114
19961;1;155353;0,06;25571;118
19981;1;150660;0,06;24661;128
