round;percentage;totalTokens;epsilon;totalMessages;maxMessages
1;1;13500;0,1;14000;14
101;0.996;105900;0,1;12985;26
201;0.982;106123;0,1;12956;27
301;0.966;104195;0,1;12987;26
401;0.943;103639;0,1;12762;26
501;0.924;105050;0,1;12861;26
601;0.911;104625;0,1;13021;26
701;0.902;104081;0,1;12793;27
801;0.887;105713;0,1;12869;26
901;0.877;105341;0,1;12933;28
1001;0.864;104593;0,1;12936;26
1101;0.852;104217;0,1;12765;26
1201;0.841;105796;0,1;12966;26
1301;0.839;103030;0,1;12772;28
1401;0.829;101394;0,1;12987;26
1501;0.819;102078;0,1;12819;26
1601;0.809;103577;0,1;13051;26
1701;0.804;102479;0,1;12857;26
1801;0.793;104217;0,1;12927;27
1901;0.789;105520;0,1;12823;26
2001;0.784;105405;0,1;12927;26
2101;0.78;106419;0,1;12815;26
2201;0.775;102184;0,1;12912;26
2301;0.77;103158;0,1;12958;26
2401;0.769;102414;0,1;12875;28
2501;0.765;100558;0,1;12763;26
2601;0.761;105787;0,1;12929;26
2701;0.758;102564;0,1;13039;27
2801;0.754;100381;0,1;12876;27
2901;0.75;103240;0,1;12919;27
3001;0.748;101777;0,1;12935;29
3101;0.745;101408;0,1;12685;26
3201;0.742;103175;0,1;13065;26
3301;0.74;104232;0,1;12763;28
3401;0.735;105447;0,1;12924;26
3501;0.733;102892;0,1;12972;27
3601;0.73;101565;0,1;12994;26
3701;0.728;103722;0,1;12774;26
3801;0.727;105938;0,1;12800;26
3901;0.726;104787;0,1;12859;26
4001;0.723;101938;0,1;12941;28
4101;0.719;103523;0,1;12868;26
4201;0.716;100328;0,1;13047;28
4301;0.713;99634;0,1;12806;26
4401;0.711;99864;0,1;12801;26
4501;0.71;103612;0,1;13031;28
4601;0.709;101811;0,1;12937;26
4701;0.705;102819;0,1;12857;28
4801;0.704;103059;0,1;12821;27
4901;0.701;98202;0,1;12893;26
5001;0.701;104032;0,1;12692;27
5101;0.7;104369;0,1;12858;26
5201;0.697;100928;0,1;12856;27
5301;0.697;103234;0,1;12754;26
5401;0.695;99033;0,1;12987;26
5501;0.694;98632;0,1;12938;26
5601;0.694;103936;0,1;12836;26
5701;0.69;103634;0,1;13058;26
5801;0.69;100119;0,1;12841;26
5901;0.688;107343;0,1;12992;26
6001;0.687;100421;0,1;12883;26
6101;0.685;100970;0,1;12836;29
6201;0.683;98899;0,1;12798;30
6301;0.682;103370;0,1;13100;26
6401;0.68;102463;0,1;13007;28
6501;0.679;102521;0,1;13027;26
6601;0.676;102818;0,1;12853;26
6701;0.676;102895;0,1;12834;26
6801;0.675;103044;0,1;12929;26
6901;0.674;102769;0,1;12920;28
7001;0.673;98572;0,1;12906;26
7101;0.671;100999;0,1;12810;28
7201;0.67;101730;0,1;12874;26
7301;0.669;99434;0,1;12780;26
7401;0.669;104206;0,1;12951;26
7501;0.669;99114;0,1;12831;27
7601;0.668;102711;0,1;12791;26
7701;0.667;102207;0,1;12732;26
7801;0.666;102051;0,1;12900;26
7901;0.664;99335;0,1;12928;26
8001;0.662;101147;0,1;12882;27
8101;0.662;102818;0,1;12914;26
8201;0.661;100032;0,1;12774;26
8301;0.658;98305;0,1;13023;28
8401;0.658;103839;0,1;12811;26
8501;0.656;99235;0,1;12960;26
8601;0.656;102709;0,1;12828;26
8701;0.656;102803;0,1;12846;28
8801;0.655;104003;0,1;12988;27
8901;0.655;102395;0,1;12794;26
9001;0.655;102216;0,1;12769;26
9101;0.655;101300;0,1;12865;26
9201;0.653;99407;0,1;13046;26
9301;0.652;100402;0,1;12955;27
9401;0.652;101195;0,1;13023;26
9501;0.652;100768;0,1;12799;26
9601;0.652;100670;0,1;12925;27
9701;0.65;100476;0,1;13163;26
9801;0.649;102232;0,1;13016;26
9901;0.648;100735;0,1;12856;26
10001;0.648;102681;0,1;13108;29
10101;0.647;100957;0,1;12899;26
10201;0.647;102332;0,1;13061;26
10301;0.647;101580;0,1;12879;26
10401;0.647;99186;0,1;12800;26
10501;0.647;100742;0,1;12688;27
10601;0.647;99823;0,1;12863;26
10701;0.647;101819;0,1;12799;27
10801;0.647;100447;0,1;13057;26
10901;0.647;100483;0,1;12889;26
11001;0.647;101798;0,1;12841;26
11101;0.646;102894;0,1;12974;29
11201;0.644;104494;0,1;12998;26
11301;0.643;99921;0,1;12782;26
11401;0.642;98439;0,1;12771;26
11501;0.642;99880;0,1;12969;26
11601;0.642;102368;0,1;12805;26
11701;0.642;100299;0,1;12936;26
11801;0.642;97956;0,1;12749;26
11901;0.642;99201;0,1;12750;26
12001;0.642;101738;0,1;13032;26
12101;0.64;99661;0,1;12769;26
12201;0.638;98759;0,1;12904;28
12301;0.638;102053;0,1;12815;26
12401;0.637;100117;0,1;12976;26
12501;0.636;100464;0,1;12894;26
12601;0.636;103027;0,1;12754;26
12701;0.636;103133;0,1;12811;26
12801;0.635;102831;0,1;12687;26
12901;0.635;100949;0,1;12902;27
13001;0.634;102630;0,1;12700;27
13101;0.634;102678;0,1;12829;28
13201;0.633;101248;0,1;12874;26
13301;0.633;102758;0,1;12767;26
13401;0.633;100832;0,1;13153;26
13501;0.633;101388;0,1;12765;26
13601;0.633;99728;0,1;12891;26
13701;0.633;100196;0,1;12840;27
13801;0.63;98293;0,1;12860;27
13901;0.63;100363;0,1;12883;27
14001;0.63;98106;0,1;12803;27
14101;0.63;98995;0,1;12889;26
14201;0.63;99288;0,1;13031;27
14301;0.63;101353;0,1;12768;26
14401;0.63;100626;0,1;12878;26
14501;0.63;103499;0,1;13086;26
14601;0.63;101046;0,1;12928;27
14701;0.629;101237;0,1;12770;26
14801;0.628;100740;0,1;12950;28
14901;0.628;100418;0,1;12928;27
15001;0.628;100695;0,1;12905;32
15101;0.627;101816;0,1;12965;26
15201;0.627;98717;0,1;12876;26
15301;0.624;100654;0,1;13034;26
15401;0.624;99274;0,1;12752;27
15501;0.624;103396;0,1;12922;26
15601;0.623;103138;0,1;13065;27
15701;0.622;103289;0,1;13085;26
15801;0.622;100190;0,1;12800;26
15901;0.621;104375;0,1;12838;26
16001;0.621;99691;0,1;12960;26
16101;0.62;99778;0,1;12999;26
16201;0.619;95574;0,1;12977;26
16301;0.618;98883;0,1;12939;26
16401;0.617;100811;0,1;12949;27
16501;0.616;97583;0,1;12907;27
16601;0.616;101875;0,1;12823;26
16701;0.616;97770;0,1;13090;26
16801;0.616;101283;0,1;12772;28
16901;0.616;98541;0,1;12892;27
17001;0.615;98422;0,1;12655;26
17101;0.615;102726;0,1;12836;27
17201;0.614;103339;0,1;13043;29
17301;0.613;102716;0,1;12885;26
17401;0.613;99612;0,1;12883;29
17501;0.612;101664;0,1;13007;27
17601;0.612;102644;0,1;12910;29
17701;0.611;101380;0,1;12752;26
17801;0.61;100137;0,1;12843;29
17901;0.61;100172;0,1;13055;28
18001;0.61;102516;0,1;12768;26
18101;0.61;99586;0,1;12911;26
18201;0.61;101313;0,1;12978;27
18301;0.61;99047;0,1;12723;26
18401;0.61;101827;0,1;12965;29
18501;0.609;99335;0,1;12845;28
18601;0.607;99699;0,1;12944;26
18701;0.607;98794;0,1;12912;26
18801;0.607;99738;0,1;12787;28
18901;0.607;99947;0,1;12867;26
19001;0.607;100825;0,1;12965;26
19101;0.605;99472;0,1;12820;30
19201;0.605;104287;0,1;13109;26
19301;0.605;100070;0,1;12779;26
19401;0.605;97854;0,1;12938;27
19501;0.604;99732;0,1;12782;26
19601;0.603;100954;0,1;12921;26
19701;0.603;99534;0,1;12793;27
19801;0.602;101098;0,1;12860;27
19901;0.601;97772;0,1;12664;28
